Division,WeightClassKg,Place,Name,Team,BodyweightKg,Best3SquatKg,Best3BenchKg,Best3DeadliftKg,TotalKg,Equipment,Event,Sex,BirthDate
Boys,51.71,1,Cade Janeck,East Bernard,51.71,99.79,61.23,108.86,269.89,Single-ply,SBD,M,
Boys,51.71,2,Juan Perez #5,Sealy,51.71,92.99,56.7,83.91,233.6,Single-ply,SBD,M,
Boys,51.71,3,Max Wickens,Sealy,42.64,79.38,47.63,74.84,201.85,Single-ply,SBD,M,
Boys,55.79,1,Jacob Guerrero,Yorktown,53.07,131.54,79.38,138.35,349.27,Single-ply,SBD,M,
Boys,55.79,2,Bryan Peralta,Yorktown,55.34,136.08,68.04,145.15,349.27,Single-ply,SBD,M,
Boys,55.79,3,Waylon Schimcek,Weimar,53.98,92.99,58.97,129.27,281.23,Single-ply,SBD,M,
Boys,59.87,1,Dylan Thaxton,Sealy,58.51,131.54,81.65,163.29,376.48,Single-ply,SBD,M,
Boys,59.87,2,Drey Rosas,Weimar,59.42,131.54,70.31,156.49,358.34,Single-ply,SBD,M,
Boys,59.87,3,Weslee Novosad,Sealy,57.15,136.08,70.31,136.08,342.46,Single-ply,SBD,M,
Boys,59.87,4,Charles Boetcher,East Bernard,57.15,111.13,65.77,113.4,290.3,Single-ply,SBD,M,
Boys,59.87,5,Dakota Ford,Weimar,57.61,81.65,58.97,122.47,263.08,Single-ply,SBD,M,
Boys,59.87,6,Alejandro Jimenez,Schulenburg,57.15,,56.7,113.4,170.1,Single-ply,BD,M,
Boys,67.13,1,Trent Mendez,Schulenburg,67.13,142.88,102.06,158.76,403.7,Single-ply,SBD,M,
Boys,67.13,2,Andrew Dirba,East Bernard,63.05,145.15,83.91,154.22,383.29,Single-ply,SBD,M,
Boys,67.13,3,Brody Reinecke,East Bernard,64.86,136.08,83.91,154.22,374.21,Single-ply,SBD,M,
Boys,67.13,4,Austin Steck,Weimar,66.68,106.59,56.7,136.08,299.37,Single-ply,SBD,M,
Boys,74.84,1,Niklas Schatz,East Bernard,70.31,181.44,102.06,188.24,471.74,Single-ply,SBD,M,
Boys,74.84,2,Orlando Adame,Schulenburg,71.67,170.1,70.31,181.44,421.84,Single-ply,SBD,M,
Boys,74.84,3,Jaylen Myles,Navasota,74.84,167.83,79.38,158.76,405.97,Single-ply,SBD,M,
Boys,74.84,4,Leo Casique,Sealy,73.48,124.74,97.52,170.1,392.36,Single-ply,SBD,M,
Boys,74.84,5,Dylan Dennis,Weimar,72.12,133.81,70.31,165.56,369.68,Single-ply,SBD,M,
Boys,74.84,6,Kolby Rivera,East Bernard,68.49,142.88,77.11,136.08,356.07,Single-ply,SBD,M,
Boys,82.1,1,Blake Jedlicka,East Bernard,79.38,181.44,104.33,183.7,469.47,Single-ply,SBD,M,
Boys,82.1,2,Brayden Duarte,Schulenburg,76.66,188.24,102.06,172.37,462.66,Single-ply,SBD,M,
Boys,82.1,3,Korbyn Rivera,East Bernard,81.65,142.88,81.65,145.15,369.68,Single-ply,SBD,M,
Boys,82.1,3,Jackson Osborne,Sealy,78.47,183.7,108.86,149.69,442.25,Single-ply,SBD,M,
Boys,82.1,4,Joshua Sanger,Yorktown,81.65,181.44,86.18,170.1,437.72,Single-ply,SBD,M,
Boys,82.1,5,Jamarion Frear,Navasota,78.02,158.76,88.45,174.63,421.84,Single-ply,SBD,M,
Boys,82.1,6,Corey Riley,Sealy,75.75,156.49,102.06,151.95,410.5,Single-ply,SBD,M,
Boys,82.1,7,Jonothan Monterroza,Sealy,76.66,158.76,86.18,151.95,396.89,Single-ply,SBD,M,
Boys,82.1,8,Will Hooper,Schulenburg,79.38,156.49,86.18,145.15,387.82,Single-ply,SBD,M,
Boys,82.1,9,Braelin Whitley,Navasota,82.1,102.06,74.84,129.27,306.17,Single-ply,SBD,M,
Boys,82.1,10,Brennon Freeman,Yorktown,80.29,113.4,65.77,113.4,292.57,Single-ply,SBD,M,
Boys,89.81,1,Victor Torres,Navasota,88.45,142.88,83.91,174.63,401.43,Single-ply,SBD,M,
Boys,89.81,2,Trevor Beyer,Schulenburg,88.9,145.15,83.91,158.76,387.82,Single-ply,SBD,M,
Boys,99.79,1,Alvin Nunn,Sealy,95.25,201.85,113.4,204.12,519.36,Single-ply,SBD,M,
Boys,99.79,2,Marco Mendoza,Navasota,95.71,185.97,97.52,181.44,464.93,Single-ply,SBD,M,
Boys,99.79,3,Alexander Santos,Navasota,92.99,165.56,83.91,170.1,419.57,Single-ply,SBD,M,
Boys,99.79,4,Hayden Schulz,Schulenburg,95.25,149.69,95.25,154.22,399.16,Single-ply,SBD,M,
Boys,99.79,5,Juan Ferretiz,Weimar,92.08,136.08,74.84,174.63,385.55,Single-ply,SBD,M,
Boys,99.79,6,Tristian Olson,Navasota,94.8,102.06,61.23,142.88,306.17,Single-ply,SBD,M,
Boys,99.79,7,Connor Ruppert,Yorktown,98.88,113.4,63.5,124.74,301.64,Single-ply,SBD,M,
Boys,109.77,1,Ethan Pompa,Yorktown,105.69,170.1,113.4,167.83,451.32,Single-ply,SBD,M,
Boys,109.77,2,Eduardo Perez,Navasota,105.69,165.56,92.99,183.7,442.25,Single-ply,SBD,M,
Boys,109.77,3,Martin Guerrero,Yorktown,107.05,181.44,90.72,170.1,442.25,Single-ply,SBD,M,
Boys,109.77,4,Hunter Mangum,Weimar,102.51,158.76,99.79,181.44,439.98,Single-ply,SBD,M,
Boys,109.77,5,Devin Leister,Yorktown,100.7,174.63,88.45,163.29,426.38,Single-ply,SBD,M,
Boys,109.77,6,Yahir Alvarez,Sealy,102.51,161.03,92.99,172.37,426.38,Single-ply,SBD,M,
Boys,109.77,7,Kobe Alvarez,Yorktown,101.6,147.42,70.31,147.42,365.14,Single-ply,SBD,M,
Boys,124.74,1,Brandon Lara,Schulenburg,120.66,229.06,131.54,183.7,544.31,Single-ply,SBD,M,
Boys,124.74,2,Raul Tavares,East Bernard,124.28,231.33,136.08,176.9,544.31,Single-ply,SBD,M,
Boys,124.74,3,Casen Ivy,East Bernard,117.48,170.1,120.2,204.12,494.42,Single-ply,SBD,M,
Boys,124.74,4,Deionte Cooper,Sealy,119.75,167.83,122.47,192.78,483.08,Single-ply,SBD,M,
Boys,124.74,5,Jose Lopez,Navasota,121.11,165.56,92.99,185.97,444.52,Single-ply,SBD,M,
Boys,124.74,6,Isaiah Adams,Schulenburg,124.74,156.49,72.57,158.76,387.82,Single-ply,SBD,M,
Boys,124.74+,1,JR Schauer,East Bernard,133.36,231.33,165.56,208.65,605.55,Single-ply,SBD,M,
Boys,124.74+,2,Colby Guzman,Schulenburg,131.54,208.65,117.93,192.78,519.36,Single-ply,SBD,M,
Boys,124.74+,3,Orlando Arellano,Navasota,138.35,183.7,120.2,165.56,469.47,Single-ply,SBD,M,
Boys,124.74+,4,Javier Martinez,Schulenburg,150.14,183.7,102.06,167.83,453.59,Single-ply,SBD,M,
Boys,124.74+,5,Jy'Eric Houston,Navasota,140.16,147.42,92.99,183.7,424.11,Single-ply,SBD,M,
