Division,WeightClassKg,Place,Name,Team,BodyweightKg,Best3SquatKg,Best3BenchKg,Best3DeadliftKg,TotalKg,Equipment,Event,Sex
Boys,51.71,1,Enrique Davila,San Saba,51.62,113.4,58.97,149.69,322.05,Single-ply,SBD,M
Boys,51.71,2,Jaret Martinez,Liberty Hill,51.71,122.47,65.77,129.27,317.51,Single-ply,SBD,M
Boys,51.71,3,Kj Stevens,Lampasas,51.62,104.33,61.23,113.4,278.96,Single-ply,SBD,M
Boys,51.71,4,Enrique Reyes,Marble Falls,50.89,106.59,47.63,106.59,260.82,Single-ply,SBD,M
Boys,51.71,5,Luke Talley,Lago Vista,45.72,90.72,52.16,95.25,238.14,Single-ply,SBD,M
Boys,55.79,1,Preston Fox,Lampasas,55.34,145.15,102.06,161.03,408.23,Single-ply,SBD,M
Boys,55.79,2,Tucker Klein,Fredericksburg,55.52,127.01,92.99,156.49,376.48,Single-ply,SBD,M
Boys,55.79,3,Eli DeHoyos,Brady,54.7,129.27,88.45,149.69,367.41,Single-ply,SBD,M
Boys,55.79,4,Luke Keller,Llano,53.43,142.88,74.84,145.15,362.87,Single-ply,SBD,M
Boys,55.79,5,Hunter McCoy,Burnet,55.52,115.67,70.31,122.47,308.44,Single-ply,SBD,M
Boys,59.87,1,Bao Nguyen,Pflugerville,56.43,165.56,92.99,163.29,421.84,Single-ply,SBD,M
Boys,59.87,2,Kyle Arriola,Lampasas,58.79,145.15,99.79,174.63,419.57,Single-ply,SBD,M
Boys,59.87,3,Tommy Johnson,Marble Falls,58.42,145.15,90.72,181.44,417.3,Single-ply,SBD,M
Boys,59.87,4,Hayden Evans,Pflugerville,59.33,138.35,92.99,145.15,376.48,Single-ply,SBD,M
Boys,59.87,5,James Eckford,Liberty Hill,56.43,120.2,77.11,131.54,328.85,Single-ply,SBD,M
Boys,67.13,1,Ryan Jackson,Burnet,65.68,201.85,120.2,176.9,498.95,Single-ply,SBD,M
Boys,67.13,2,Geronimo Serrato,Pflugerville Connally,67.13,172.37,102.06,179.17,453.59,Single-ply,SBD,M
Boys,67.13,3,Marc Western,Wimberley,65.14,156.49,83.91,161.03,401.43,Single-ply,SBD,M
Boys,67.13,4,Jd Bourke,San Saba,66.5,156.49,72.57,165.56,394.63,Single-ply,SBD,M
Boys,67.13,5,Caleb Roberts,Burnet,64.77,154.22,68.04,170.1,392.36,Single-ply,SBD,M
Boys,67.13,6,Hayden Chapman,Lago Vista,67.13,154.22,90.72,136.08,381.02,Single-ply,SBD,M
Boys,67.13,7,Emmitt Venable,Llano,61.23,138.35,77.11,145.15,360.61,Single-ply,SBD,M
Boys,67.13,8,John Tewksbury,Fredericksburg,62.78,129.27,77.11,138.35,344.73,Single-ply,SBD,M
Boys,67.13,9,Jacob Bohnert,Fredericksburg,61.51,117.93,77.11,142.88,337.93,Single-ply,SBD,M
Boys,67.13,10,Cordyn Alderman,Marble Falls,63.68,90.72,74.84,120.2,285.76,Single-ply,SBD,M
Boys,67.13,NS,Roberto Rodriguez #6,Pflugerville,,,,,,Single-ply,SBD,M
Boys,67.13,DQ,Colton House,Junction,61.33,174.63,90.72,,,Single-ply,SBD,M
Boys,74.84,1,Jack Jerome,Lampasas,72.39,233.6,142.88,206.38,582.87,Single-ply,SBD,M
Boys,74.84,2,Remy Wade,Wimberley,72.3,210.92,133.81,210.92,555.65,Single-ply,SBD,M
Boys,74.84,3,Matthew Reiff,Pflugerville,71.94,199.58,120.2,206.38,526.17,Single-ply,SBD,M
Boys,74.84,4,Case Brister,Lampasas,74.57,204.12,111.13,204.12,519.36,Single-ply,SBD,M
Boys,74.84,5,Javier Baez,San Saba,73.75,190.51,92.99,215.46,498.95,Single-ply,SBD,M
Boys,74.84,6,Sakima Herrera,San Saba,71.21,170.1,102.06,192.78,464.93,Single-ply,SBD,M
Boys,74.84,7,Lander Chisolm,Lampasas,71.76,183.7,92.99,172.37,449.06,Single-ply,SBD,M
Boys,74.84,8,Joe Maldonado,Marble Falls,74.57,170.1,95.25,183.7,449.06,Single-ply,SBD,M
Boys,74.84,9,Jake Self,Llano,71.21,167.83,106.59,165.56,439.98,Single-ply,SBD,M
Boys,74.84,10,Jason Andrews,Lampasas,70.58,158.76,104.33,172.37,435.45,Single-ply,SBD,M
Boys,74.84,11,John Dela Cruz,Liberty Hill,72.39,161.03,92.99,142.88,396.89,Single-ply,SBD,M
Boys,74.84,12,Phu Trinh,Pflugerville Connally,71.49,149.69,83.91,154.22,387.82,Single-ply,SBD,M
Boys,74.84,13,Andrew Burns,Fredericksburg,69.94,124.74,90.72,154.22,369.68,Single-ply,SBD,M
Boys,74.84,14,Luke Huddleston,Liberty Hill,67.49,142.88,70.31,124.74,337.93,Single-ply,SBD,M
Boys,74.84,NS,Rafael Arroyo,Wimberley,,,,,,Single-ply,SBD,M
Boys,74.84,NS,Christian Beall,Lago Vista,,,,,,Single-ply,SBD,M
Boys,74.84,NS,Michael Najar,Llano,,,,,,Single-ply,SBD,M
Boys,74.84,DQ,Austin Simpson,Fredericksburg,73.3,,,,,Single-ply,SBD,M
Boys,74.84,DQ,Alex Arriola,Pflugerville,68.67,142.88,,,,Single-ply,SBD,M
Boys,74.84,DQ,Vansh Gupta,Pflugerville,74.03,,,,,Single-ply,SBD,M
Boys,82.1,1,Joshua Handley,Fredericksburg,80.1,204.12,145.15,238.14,587.4,Single-ply,SBD,M
Boys,82.1,2,Ahron Arroyo,Wimberley,79.29,219.99,111.13,199.58,530.7,Single-ply,SBD,M
Boys,82.1,3,Grishma Pun,Burnet,81.37,204.12,115.67,188.24,508.02,Single-ply,SBD,M
Boys,82.1,4,Dylan Ahrens,Fredericksburg,79.38,172.37,113.4,185.97,471.74,Single-ply,SBD,M
Boys,82.1,5,Zachary Aiken,Liberty Hill,76.66,170.1,97.52,195.04,462.66,Single-ply,SBD,M
Boys,82.1,6,Jesus Santiago,Wimberley,82.01,145.15,86.18,174.63,405.97,Single-ply,SBD,M
Boys,82.1,7,Voice Tuttle,Marble Falls,78.83,142.88,113.4,147.42,403.7,Single-ply,SBD,M
Boys,82.1,8,Alex Hires,Pflugerville,76.11,136.08,102.06,158.76,396.89,Single-ply,SBD,M
Boys,82.1,NS,Dom Colon,Pflugerville Connally,,,,,,Single-ply,SBD,M
Boys,82.1,NS,Kegan Richardson,Lampasas,,,,,,Single-ply,SBD,M
Boys,82.1,NS,Everett Borton,Fredericksburg,,,,,,Single-ply,SBD,M
Boys,89.81,1,Jaden Moreno,Pflugerville Connally,89.27,226.8,161.03,208.65,596.47,Single-ply,SBD,M
Boys,89.81,2,Christian Keizer,Liberty Hill,85.82,222.26,154.22,188.24,564.72,Single-ply,SBD,M
Boys,89.81,3,Lakota Lawrence,Liberty Hill,88.27,206.38,138.35,215.46,560.19,Single-ply,SBD,M
Boys,89.81,4,Logan Duggar,Llano,83.1,219.99,115.67,217.72,553.38,Single-ply,SBD,M
Boys,89.81,5,Glenn Thomas,Marble Falls,89.72,226.8,113.4,213.19,553.38,Single-ply,SBD,M
Boys,89.81,6,Jacob Maldonado,Marble Falls,88.27,204.12,115.67,219.99,539.77,Single-ply,SBD,M
Boys,89.81,7,Frank Ramsey,Wimberley,84.91,197.31,108.86,226.8,532.97,Single-ply,SBD,M
Boys,89.81,8,Eli Salinas,San Saba,84.64,192.78,113.4,204.12,510.29,Single-ply,SBD,M
Boys,89.81,9,Braeden Howell,Burnet,86.45,183.7,127.01,170.1,480.81,Single-ply,SBD,M
Boys,89.81,10,Jesus Cervantes,San Saba,88.36,167.83,117.93,190.51,476.27,Single-ply,SBD,M
Boys,89.81,11,Blake Marler,Pflugerville,83.37,174.63,92.99,185.97,453.59,Single-ply,SBD,M
Boys,89.81,12,Millicent Grear,Pflugerville Connally,88.63,174.63,83.91,172.37,430.91,Single-ply,SBD,M
Boys,89.81,13,Samuel Farell,Marble Falls,84.37,145.15,102.06,161.03,408.23,Single-ply,SBD,M
Boys,89.81,14,Brigham Grover,Marble Falls,82.55,136.08,77.11,174.63,387.82,Single-ply,SBD,M
Boys,89.81,15,Leonel Arando,San Saba,85.82,117.93,90.72,147.42,356.07,Single-ply,SBD,M
Boys,89.81,NS,Dax Lawhon,Lago Vista,,,,,,Single-ply,SBD,M
Boys,89.81,NS,Guillermo Davila,Llano,,,,,,Single-ply,SBD,M
Boys,89.81,NS,Jesus Chacon,Llano,,,,,,Single-ply,SBD,M
Boys,99.79,1,Brady Herbst,Junction,97.89,226.8,170.1,217.72,614.62,Single-ply,SBD,M
Boys,99.79,2,Joseph Watson,San Saba,94.8,217.72,145.15,233.6,596.47,Single-ply,SBD,M
Boys,99.79,3,Michael Friberg,Pflugerville,99.34,213.19,106.59,217.72,537.51,Single-ply,SBD,M
Boys,99.79,4,Owen Seaver,Lampasas,95.07,185.97,149.69,181.44,517.1,Single-ply,SBD,M
Boys,99.79,5,Dallin Weeks,Pflugerville,96.34,174.63,106.59,188.24,469.47,Single-ply,SBD,M
Boys,99.79,6,Samuel Onyejiaka,Pflugerville,96.34,183.7,102.06,154.22,439.98,Single-ply,SBD,M
Boys,99.79,7,Jose Vasquez,Marble Falls,91.08,147.42,102.06,174.63,424.11,Single-ply,SBD,M
Boys,99.79,8,Noah de la Torre,Pflugerville,99.79,165.56,92.99,165.56,424.11,Single-ply,SBD,M
Boys,99.79,9,Hector Herrera,Wimberley,91.17,158.76,79.38,176.9,415.04,Single-ply,SBD,M
Boys,99.79,10,Matthew Kloepper,Llano,92.99,158.76,102.06,154.22,415.04,Single-ply,SBD,M
Boys,99.79,11,Zach Watson,Llano,95.98,127.01,95.25,145.15,367.41,Single-ply,SBD,M
Boys,99.79,NS,Mason Baker,Llano,,,,,,Single-ply,SBD,M
Boys,99.79,NS,Bladen Calley,San Saba,,,,,,Single-ply,SBD,M
Boys,109.77,1,Roger Craig,Burnet,109.77,283.5,174.63,260.82,718.94,Single-ply,SBD,M
Boys,109.77,2,Vincent Ume-Ezeoke,Pflugerville,103.51,256.28,142.88,244.94,644.1,Single-ply,SBD,M
Boys,109.77,3,Rudy Esparza,Lampasas,108.68,235.87,142.88,249.48,628.23,Single-ply,SBD,M
Boys,109.77,4,Drake Truitt,Liberty Hill,108.68,256.28,145.15,215.46,616.89,Single-ply,SBD,M
Boys,109.77,5,Cameron Coburn,Wimberley,105.96,226.8,142.88,215.46,585.13,Single-ply,SBD,M
Boys,109.77,6,Cristian Aviles,Fredericksburg,105.96,197.31,147.42,176.9,521.63,Single-ply,SBD,M
Boys,109.77,7,Johnathan Baker,Burnet,109.04,192.78,124.74,192.78,510.29,Single-ply,SBD,M
Boys,109.77,8,Chris Rivera,Pflugerville Connally,107.23,199.58,111.13,188.24,498.95,Single-ply,SBD,M
Boys,109.77,9,Josue Paulino,Llano,103.42,199.58,102.06,172.37,474,Single-ply,SBD,M
Boys,109.77,10,Matthew Whitley,Llano,102.24,161.03,136.08,170.1,467.2,Single-ply,SBD,M
Boys,109.77,NS,Landin Short,San Saba,,,,,,Single-ply,SBD,M
Boys,124.74,1,Justin Montgomery,Liberty Hill,119.66,306.17,197.31,256.28,759.77,Single-ply,SBD,M
Boys,124.74,2,Clayton Pierce,San Saba,112.4,274.42,165.56,240.4,680.39,Single-ply,SBD,M
Boys,124.74,3,Jeremy Rodgers,Lampasas,110.31,233.6,138.35,256.28,628.23,Single-ply,SBD,M
Boys,124.74,4,Zac Hudgins,Burnet,110.68,238.14,156.49,233.6,628.23,Single-ply,SBD,M
Boys,124.74,5,John McKee,Pflugerville Connally,116.21,251.74,142.88,226.8,621.42,Single-ply,SBD,M
Boys,124.74,6,Kallen Maxwell,Pflugerville Connally,123.56,240.4,151.95,213.19,605.55,Single-ply,SBD,M
Boys,124.74,7,Paul Montes,Liberty Hill,118.57,210.92,161.03,213.19,585.13,Single-ply,SBD,M
Boys,124.74,8,Oz Diaz,Pflugerville Connally,124.56,226.8,136.08,210.92,573.79,Single-ply,SBD,M
Boys,124.74,9,Cesar Reza,Brady,120.84,210.92,117.93,219.99,548.85,Single-ply,SBD,M
Boys,124.74,10,Heath Godfrey,Llano,121.38,235.87,108.86,204.12,548.85,Single-ply,SBD,M
Boys,124.74,11,Hayden Henry,Burnet,117.39,226.8,113.4,204.12,544.31,Single-ply,SBD,M
Boys,124.74,12,Bryan Reza,San Saba,120.11,185.97,136.08,206.38,528.44,Single-ply,SBD,M
Boys,124.74,13,Jett Hibler,San Saba,111.49,192.78,115.67,208.65,517.1,Single-ply,SBD,M
Boys,124.74,14,Jaime Herrera,Burnet,116.12,195.04,117.93,174.63,487.61,Single-ply,SBD,M
Boys,124.74,15,Keegan Klaus,Liberty Hill,117.21,190.51,129.27,158.76,478.54,Single-ply,SBD,M
Boys,124.74,16,Lewis McTighe,Llano,117.21,181.44,102.06,181.44,464.93,Single-ply,SBD,M
Boys,124.74,DQ,Grayson Marrs,Pflugerville,111.04,,,,,Single-ply,SBD,M
Boys,124.74+,1,Brody Adams,Junction,139.98,254.01,165.56,222.26,641.83,Single-ply,SBD,M
Boys,124.74+,2,Jared Tippie,Burnet,141.34,247.21,142.88,215.46,605.55,Single-ply,SBD,M
Boys,124.74+,3,Griffin Beard,Lago Vista,125.01,247.21,124.74,215.46,587.4,Single-ply,SBD,M
Boys,124.74+,4,John Long,Lampasas,138.07,226.8,161.03,188.24,576.06,Single-ply,SBD,M
