Name,Sex,Event,Equipment,Division,BodyweightKg,WeightClassKg,Squat1Kg,Squat2Kg,Squat3Kg,Best3SquatKg,Bench1Kg,Bench2Kg,Bench3Kg,Best3BenchKg,Deadlift1Kg,Deadlift2Kg,Deadlift3Kg,Best3DeadliftKg,TotalKg,Place,BirthDate,State
Chris Farrow,M,SBD,Single-ply,M-E-Open,116.2,120,-270,-270,270,270,170,180.5,-190,180.5,250,-270,,250,700.5,1,,NM
Roger Powell #1,M,SBD,Raw,M-C-M5,64.7,66,80,90,95,95,50,55,,55,120,130,,130,280,1,,NM
Sean Smithson,M,SBD,Raw,M-C-M1,92.2,93,220,230,235,235,135,140,142.5,142.5,240,257.5,265,265,642.5,1,,NM
Nigel Needham,M,SBD,Raw,M-C-M1,92.6,93,-180,180,200,200,130,140,145.5,145.5,180,195,210,210,555.5,2,,NM
Matthew Jackson,M,SBD,Raw,M-C-Open,73.8,74,-190,-190,190,190,122.5,127.5,132.5,132.5,215,222.5,-225,222.5,545,1,,NM
Daniel Thrasivoulou,M,SBD,Raw,M-C-Open,71.7,74,160,175,185,185,-117.5,125,-130,125,215,225,230,230,540,2,,NM
Ben Poole,M,SBD,Raw,M-C-Open,72.2,74,180,192.5,-197.5,192.5,115,-120,120,120,205,217.5,-225,217.5,530,3,,NM
William MacDonald,M,SBD,Raw,M-C-Open,70.7,74,150,165,170,170,105,115,120,120,200,210,-220,210,500,4,,NM
Aodhan Phillips-Lees,M,SBD,Raw,M-C-Open,77.1,83,180,190,200,200,120,130,-135,130,180,190,200,200,530,1,,NM
Hamed Farjam,M,SBD,Raw,M-C-Open,92.2,93,230,240,-245,240,165,170,-175,170,270,290,292.5,292.5,702.5,1,,NM
John Hamson,M,SBD,Raw,M-C-Open,92.1,93,240,255,262.5,262.5,145,150,-155,150,260,280,-287.5,280,692.5,2,,NM
James Coackley,M,SBD,Raw,M-C-Open,88.5,93,190,-205,205,205,125,135,-140,135,-240,240,260,260,600,3,,NM
Aaron Pyatt,M,SBD,Raw,M-C-Open,88.8,93,180,190,200,200,122.5,130,-135,130,205,212.5,-220,212.5,542.5,4,,NM
Tom Vivian,M,SBD,Raw,M-C-Open,89.4,93,172.5,182.5,192.5,192.5,110,120,127.5,127.5,195,210,217.5,217.5,537.5,5,,NM
Nathan Harvey,M,SBD,Raw,M-C-Open,101.4,105,235,245,260,260,140,-160,,140,305,325,,325,725,1,,NM
Harry Figg,M,SBD,Raw,M-C-Open,102.5,105,240,250,260,260,165,170,175,175,240,255,-265,255,690,2,,NM
Simon Smith,M,SBD,Raw,M-C-Open,103.7,105,215,230,235,235,130,140,147.5,147.5,215,230,-242.5,230,612.5,3,,NM
Chris Sedgewick,M,SBD,Raw,M-C-Open,102.2,105,160,170,180,180,107.5,115,-120,115,195,205,210,210,505,4,,NM
Jim Davison,M,SBD,Raw,M-C-Open,96.1,105,142.5,152.5,162.5,162.5,82.5,92.5,95,95,160,170,180,180,437.5,5,,NM
Dave Richardson #1,M,SBD,Raw,M-C-Open,113.6,120,265,280,300,300,170,175,-177.5,175,310,330,340,340,815,1,,NM
David Smith,M,SBD,Raw,M-C-Open,116.5,120,240,255,,255,165,-175,-175,165,230,240,-250,240,660,2,,NM
Ben Murrell,M,SBD,Raw,M-C-U23,66,66,115,125,132.5,132.5,65,72.5,-80.5,72.5,190.5,210,-215,210,415,1,,NM
Tom Shipton,M,SBD,Raw,M-C-U23,80.4,83,180,187.5,195,195,120,127.5,132.5,132.5,200,210,212.5,212.5,540,1,,NM
David Simmons,M,SBD,Raw,M-C-U23,79,83,120,130,145,145,120,127.5,-130,127.5,190,205,215,215,487.5,2,,NM
Ben Pape,M,SBD,Raw,M-C-U23,89.2,93,205,212.5,220,220,122.5,130,-132.5,130,235,245,-252.5,245,595,1,,NM
Udayd Ahmed,M,SBD,Raw,M-C-U23,88.9,93,175,185,190,190,97.5,102.5,105,105,-190,197.5,207.5,207.5,502.5,2,,NM
Brandon Scott #2,M,SBD,Raw,M-C-U23,119.1,120,-205,205,-210,205,145,152.5,-155,152.5,230,240,250,250,607.5,1,,NM
George Kaye,M,SBD,Raw,M-C-U18,115.8,120,115,127.5,137.5,137.5,75,82.5,87.5,87.5,140,155,165,165,390,1,,NM
Leslie Griffin #1,F,SBD,Raw,F-C-M2,67.7,72,75,80,-85,80,45,47.5,-50,47.5,95,100,105,105,232.5,1,,NM
Sam Shillitto,F,SBD,Raw,F-C-M1,64.4,72,70,75,80,80,42.5,45,-47.5,45,97.5,105,110,110,235,1,,NM
Lizelle Attwood,F,SBD,Raw,F-C-M1,80.9,84,90,95,100,100,70,75,-77.5,75,122.5,127.5,-132.5,127.5,302.5,1,,NM
Elizabeth Barnard #1,F,SBD,Raw,F-C-M2,77.9,84,-85,85,90,90,47.5,50,52.5,52.5,95,100,105,105,247.5,2,,NM
Paula Craven,F,SBD,Raw,F-C-M1,96.8,84+,100,-110,-112.5,100,55,57.5,-60,57.5,120,130,135,135,292.5,1,1977-01-17,NM
Rachael Delaney,F,SBD,Raw,F-C-M1,93.1,84+,87.5,95,100,100,40,42.5,45,45,122.5,130,135,135,280,2,,NM
Nicola Hill,F,SBD,Raw,F-C-M1,88,84+,75,80,85,85,52.5,-55,-55,52.5,-117.5,125,130,130,267.5,3,,NM
Lisa Dawn Welch,F,SBD,Raw,F-C-M1,84.7,84+,85,90,95,95,42.5,45,-47.5,45,112.5,120,125,125,265,4,,NM
Sophie Moszuti,F,SBD,Raw,F-C-Open,46.5,47,52.5,57.5,60,60,35,37.5,40,40,85,90,95,95,195,1,,NM
Linzi Waite,F,SBD,Raw,F-C-Open,50.9,52,80,87.5,92.5,92.5,47.5,52.5,55,55,87.5,92.5,100,100,247.5,1,,NM
Sarah Cheshire,F,SBD,Raw,F-C-Open,55.1,57,90,100,105,105,40,45,50,50,120,130,140,140,295,1,,NM
Suzanne Dakin,F,SBD,Raw,F-C-Open,56.2,57,80,90,95,95,-50,50,-55,50,145,147.5,150,150,295,2,,NM
Emma James,F,SBD,Raw,F-C-Open,57,57,92.5,97.5,102.5,102.5,50,55,-57.5,55,115,120,-125,120,277.5,3,,NM
Claire Lilley,F,SBD,Raw,F-C-Open,62.1,63,120,125,127.5,127.5,65,-70,-70,65,145,-152.5,-152.5,145,337.5,1,,NM
Hayley Gamblin,F,SBD,Raw,F-C-Open,62.4,63,97.5,102.5,-107.5,102.5,57.5,60,62.5,62.5,130,140,150,150,315,2,,NM
Holly Cox,F,SBD,Raw,F-C-Open,62.2,63,95,100,-105,100,50,52.5,55,55,127.5,135,-140,135,290,3,,NM
Cassandra Marillier,F,SBD,Raw,F-C-Open,62.1,63,100,110,-117.5,110,45,50,-52.5,50,100,110,115,115,275,4,,NM
Naomi Hollands,F,SBD,Raw,F-C-Open,69.7,72,-115,117.5,120,120,57.5,60,-62.5,60,150,160,-165,160,340,1,,NM
Sophie Hardy,F,SBD,Raw,F-C-Open,70.3,72,120,125,127.5,127.5,67.5,70,72.5,72.5,135,137.5,140,140,340,2,,NM
Amy Kenney,F,SBD,Raw,F-C-Open,70.3,72,-105,105,-112.5,105,-50,50,-52.5,50,140,-145,-145,140,295,3,,NM
Sadie Hurst,F,SBD,Raw,F-C-Open,72,72,100,107.5,-115,107.5,45,50,-55,50,115,127.5,137.5,137.5,295,4,,NM
Kim Clarke,F,SBD,Raw,F-C-Open,71.7,72,85,90,92.5,92.5,47.5,52.5,55,55,105,-115,-115,105,252.5,5,,NM
Laura Rowett,F,SBD,Raw,F-C-Open,66.4,72,72.5,77.5,82.5,82.5,42.5,45,-47.5,45,95,100,105,105,232.5,6,,NM
Jemima Cholmondely-Smth,F,SBD,Raw,F-C-Open,66.9,72,70,75,80,80,40,42.5,-45,42.5,97.5,105,110,110,232.5,7,,NM
Kelly Marie O'Dell,F,SBD,Raw,F-C-Open,64.6,72,67.5,72.5,77.5,77.5,37.5,-40,42.5,42.5,80,87.5,95,95,215,8,,NM
Lisa White,F,SBD,Raw,F-C-Open,67.3,72,47.5,52.5,57.5,57.5,27.5,30,-32.5,30,70,75,77.5,77.5,165,9,,NM
Sam Jackson #2,F,SBD,Raw,F-C-Open,73.9,84,100,105,107.5,107.5,57.5,60,62.5,62.5,140,147.5,-155,147.5,317.5,1,,NM
Hollie Gardner,F,SBD,Raw,F-C-Open,82.6,84,100,105,107.5,107.5,45,50,-52.5,50,110,120,127.5,127.5,285,2,,NM
Katie Freeman,F,SBD,Raw,F-C-Open,78.9,84,75,80,85,85,32.5,35,37.5,37.5,110,117.5,122.5,122.5,245,3,,NM
Lucy Claire Henighan,F,SBD,Raw,F-C-Open,72.8,84,60,65,70,70,40,42.5,-45,42.5,90,95,100,100,212.5,4,,NM
Sarah Bouskill,F,SBD,Raw,F-C-Open,115,84+,135,142.5,150.5,150.5,82.5,87.5,91.5,91.5,145,160,-175,160,402,1,,NM
Hannah Stansfield,F,SBD,Raw,F-C-Open,94.3,84+,90,95,100,100,47.5,50,52.5,52.5,105,110,115,115,267.5,2,,NM
Sade Garrison,F,SBD,Raw,F-C-Open,101,84+,60,67.5,72.5,72.5,32.5,35,-37.5,35,87.5,95,100,100,207.5,3,,NM
Helen Round,F,SBD,Raw,F-C-U23,50.7,52,80,85,87.5,87.5,47.5,52.5,55,55,97.5,102.5,105,105,247.5,1,,NM
Amelia Nixon,F,SBD,Raw,F-C-U23,59.9,63,80,85,-87.5,85,50,55,60,60,90,97.5,105,105,250,1,,NM
Rowena Roos,F,SBD,Raw,F-C-U23,68.4,72,125,132.5,140,140,57.5,62.5,67.5,67.5,140,150,160,160,367.5,1,,NM
Chelsea Marshall,F,SBD,Raw,F-C-U18,53.1,57,50,55,-60,55,25,27.5,30,30,60,65,67.5,67.5,152.5,1,,NM
Anya Delaney,F,SBD,Raw,F-C-U18,57.9,63,60,65,70,70,25,27.5,-30,27.5,70,75,80,80,177.5,1,,NM
Mariah Connor-Brown,F,SBD,Raw,F-C-U18,83.1,84,75,77.5,80.5,80.5,62.5,67.5,70,70,100,107.5,115,115,265.5,1,,NM
Chloe Ann Waby,F,SBD,Raw,F-C-U18,80.8,84,75,80,85,85,32.5,35,37.5,37.5,92.5,100,105,105,227.5,2,,NM
