Place,WeightClassKg,Name,State,Sex,BodyweightKg,Best3SquatKg,Best3BenchKg,Best3DeadliftKg,TotalKg,Division,Event,Equipment
1,90+,LaTosha Cleaver,TX,F,93.44,152.5,80,222.5,455,wsm2,SBD,Wraps
1,75,Samantha Adee,OK,F,73.21,135,70,160,365,wopen,SBD,Wraps
1,75,Samantha Adee,OK,F,73.21,135,70,160,365,wsm2,SBD,Wraps
1,60,Daisymay Reyes,OK,F,58.56,115,60,137.5,312.5,wsm1,SBD,Wraps
1,60,Becky Thompson,TX,F,57.11,110,57.5,127.5,295,wpure,SBD,Wraps
1,60,Becky Thompson,TX,F,57.11,110,57.5,127.5,295,wsmp,SBD,Wraps
1,75,Tonya Ridgway,TX,F,68.67,140,65,122.5,327.5,wsm1,SBD,Wraps
1,82.5,Valencia Rucker,OK,F,79.47,105,75,167.5,347.5,wint,SBD,Wraps
1,75,Whitley Madison,OK,F,68.31,87.5,57.5,140,285,wjr,SBD,Wraps
1,82.5,Casie Dees,OK,F,82.37,102.5,67.5,145,315,wsm1,SBD,Wraps
1,67.5,Samantha McLeod,TX,F,61.69,97.5,52.5,105,255,wnov,SBD,Wraps
1,60,Alley Key,AR,F,58.88,92.5,42.5,112.5,247.5,whs,SBD,Wraps
1,60,Alley Key,AR,F,58.88,92.5,42.5,112.5,247.5,wjr,SBD,Wraps
1,60,Alley Key,AR,F,58.88,92.5,42.5,112.5,247.5,wteen,SBD,Wraps
1,75,Krystal Lopez,TX,F,74.48,85,60,122.5,267.5,wsmp,SBD,Wraps
1,82.5,Emily Lepien,OK,F,80.74,97.5,45,122.5,265,wjr,SBD,Wraps
1,82.5,Emily Lepien,OK,F,80.74,97.5,45,122.5,265,wteen,SBD,Wraps
1,90+,Morgan Carter,OK,F,107.77,122.5,57.5,125,305,wnov,SBD,Wraps
1,90+,Morgan Carter,OK,F,107.77,122.5,57.5,125,305,wsm1,SBD,Wraps
1,90+,Morgan Carter,OK,F,107.77,122.5,57.5,125,305,wsmp,SBD,Wraps
2,90+,Christy Batterson,OK,F,105.23,105,70,115,290,wnov,SBD,Wraps
1,52,Lily Patterson,OK,F,51.71,62.5,32.5,62.5,157.5,wyouth,SBD,Wraps
1,90+,LaTosha Cleaver,TX,F,93.44,,80,222.5,302.5,wpure,BD,Raw
1,75,Krystal Lopez,TX,F,74.48,,,122.5,122.5,wsm2,D,Raw
1,90+,LaTosha Cleaver,TX,F,93.44,,80,222.5,302.5,wpure,BD,Raw
1,82.5,Valencia Rucker,OK,F,79.47,,75,167.5,242.5,wint,BD,Raw
1,67.5,Kat Reinier,NM,F,67.18,105,72.5,140,317.5,wmp,SBD,Raw
1,75,Amy Bannavong,TX,F,74.48,115,60,150,325,wnov,SBD,Raw
1,60,Marisa Crisostomo,TX,F,59.47,87.5,42.5,135,265,wpure,SBD,Raw
1,67.5,Jodie Duncan,TX,F,65,70,45,115,230,wnov,SBD,Raw
1,60,Sarah Decker,TX,F,58.79,65,40,100,205,wjr,SBD,Raw
1,75,Andrea Stitzel,TX,F,74.43,75,47.5,97.5,220,wpure,SBD,Raw
1,67.5,Kat Reinier,NM,F,67.18,,72.5,,72.5,wmp,B,Raw
1,56,Kyston Wheat,OK,M,55.66,120,82.5,140,342.5,nov,SBD,Single-ply
1,82.5,Mason Bannavong,TX,M,78.88,182.5,120,275,577.5,nov,SBD,Raw
1,125,Andrew Sithideth,TX,M,115.58,225,192.5,272.5,690,nov,SBD,Raw
1,75,Casey Inthavong,TX,M,69.58,185,120,230,535,nov,SBD,Raw
1,75,Trung Nguyen,OK,M,73.16,190,105,220,515,jr,SBD,Raw
2,75,Toan Nguyen,OK,M,74.75,170,125,212.5,507.5,jr,SBD,Raw
1,110,Phillip Wylie,TX,M,107.37,212.5,152.5,227.5,592.5,m2,SBD,Raw
1,82.5,Brady Haering,OK,M,78.83,137.5,87.5,170,395,jr,SBD,Raw
1,100,Ray Ortiz,OK,M,98.07,,230,,230,m2,B,Single-ply
1,100,Ray Ortiz,OK,M,98.07,,230,,230,mp,B,Single-ply
1,100,Ray Ortiz,OK,M,98.07,,230,,230,p+f,B,Single-ply
1,140+,Leonard Willison,IA,M,158.3,,270,,270,p+f,B,Single-ply
1,75,Greg Wheat,OK,M,72.98,,130,,130,nov,B,Single-ply
1,125,Eddie Koon,KS,M,121.65,,167.5,245,412.5,mp,BD,Raw
1,82.5,Alfredo Tatum,OK,M,80.1,,140,185,325,jr,BD,Raw
1,82.5,Dan Morgan,AZ,M,79.61,,110,180,290,m2,BD,Raw
1,90,David Coffman,OK,M,89.13,,92.5,190,282.5,m3,BD,Raw
1,140,Jake Smith,OK,M,128.73,,140,185,325,nov,BD,Raw
1,110,Jacob Hitchcock,OK,M,109.91,,122.5,192.5,315,teen,BD,Raw
1,90,Joshua Singer,OK,M,88.68,,,227.5,227.5,int,D,Raw
1,100,Hector Reyna,TX,M,98.16,,,235,235,jr,D,Raw
1,125,Mike Miller #1,IA,M,118.25,,,237.5,237.5,m1,D,Raw
1,125,Ronnie Snowton,TX,M,120.66,,205,,205,bpm2,B,Raw
1,75,Chad Ake,OK,M,74.43,,150,,150,bpp+f,B,Raw
1,90,Roger Rodrich,OK,M,89.22,,160,,160,bpm2,B,Raw
1,125,Douglas Brown,CO,M,111.27,,175,,175,bpm1,B,Raw
1,110,Nick Dwinell,OK,M,107.05,,150,,150,bpm3,B,Raw
1,75,Danny Harris,OK,M,73.35,,52.5,,52.5,bpm2,B,Raw
1,67.5,Kenneth Goad,MO,M,65.14,,47.5,,47.5,bpmp,B,Raw
1,90,Tylor Killingsworth,OK,M,88.18,,125,,125,bpjr,B,Raw
1,100,Stephen Klein,OK,M,99.74,282.5,177.5,325,785,open,SBD,Wraps
1,100,Stephen Klein,OK,M,99.74,282.5,177.5,325,785,smp,SBD,Wraps
1,82.5,Matt Seratte,OK,M,78.43,235,137.5,251,623.5,nov,SBD,Wraps
1,82.5,Matt Seratte,OK,M,78.43,235,137.5,251,623.5,teen,SBD,Wraps
1,75,Rahul Chauhan,TX,M,74.21,232.5,132.5,235,600,sm1,SBD,Wraps
1,140,Alex Hamblin,TX,M,132.68,307.5,185,295,787.5,p+f,SBD,Wraps
1,140,Alex Hamblin,TX,M,132.68,307.5,185,295,787.5,sm1,SBD,Wraps
1,82.5,DeVonte Wilson,TX,M,81.51,217.5,125,280,622.5,jr,SBD,Wraps
1,82.5,Ben Sherwood,TX,M,78.2,222.5,147.5,232.5,602.5,int,SBD,Wraps
1,125,James Dunn #3,TX,M,114.49,295,135,295,725,m1,SBD,Wraps
1,100,Zach Sumodobia,TX,M,96.07,230,142.5,265,637.5,jr,SBD,Wraps
1,90,Spencer Boese,OK,M,89.68,232.5,132.5,240,605,teen,SBD,Wraps
2,82.5,Dylan Vaughn,OK,M,80.88,192.5,135,242.5,570,nov,SBD,Wraps
1,67.5,Devin Major,OK,M,65.27,175,110,220,505,jr,SBD,Wraps
1,100,Vincent Wiley,TX,M,94.35,205,142.5,265,612.5,sm1,SBD,Wraps
2,100,Daniel Glover,OK,M,97.07,217.5,140,257.5,615,jr,SBD,Wraps
1,100,William Manning #2,TX,M,99.2,237.5,130,245,612.5,nov,SBD,Wraps
3,100,Samuel Mandujano,TX,M,97.57,255,137.5,210,602.5,jr,SBD,Wraps
1,100,Michael Posada,TX,M,96.25,227.5,132.5,235,595,nov,SBD,Wraps
1,90,Nolan Henning,OK,M,86,220,117.5,212.5,550,jr,SBD,Wraps
1,110,Phillip Wylie,TX,M,107.37,212.5,152.5,227.5,592.5,m2,SBD,Wraps
1,90,Austin Self,TX,M,87.09,185,120,227.5,532.5,nov,SBD,Wraps
2,82.5,Braydon Stricker,OK,M,80.15,182.5,115,207.5,505,jr,SBD,Wraps
2,100,Austin Irwin,TX,M,98.34,207.5,122.5,227.5,557.5,nov,SBD,Wraps
1,75,Robert Parker,OK,M,73.39,167.5,125,185,477.5,open,SBD,Wraps
3,82.5,Alvin Medina,OK,M,81.24,170,130,190,490,nov,SBD,Wraps
1,90,Trent Patterson,OK,M,87.59,170,120,212.5,502.5,p+f,SBD,Wraps
3,82.5,William Best,OK,M,77.47,160,85,217.5,462.5,jr,SBD,Wraps
1,75,Tom Newell,NM,M,71.89,142.5,110,185,437.5,m2,SBD,Wraps
1,75,Tom Newell,NM,M,71.89,142.5,110,185,437.5,mp,SBD,Wraps
2,75,Tom Newell,NM,M,71.89,142.5,110,185,437.5,open,SBD,Wraps
1,82.5,Dan Morgan,AZ,M,79.61,170,110,180,460,m2,SBD,Wraps
1,90,Lee Stitzel,TX,M,84.28,162.5,100,205,467.5,open,SBD,Wraps
1,90,Donald Markham,TX,M,89.72,160,157.5,162.5,480,m1,SBD,Wraps
1,90,Donald Markham,TX,M,89.72,160,157.5,162.5,480,mp,SBD,Wraps
2,90,Donald Markham,TX,M,89.72,160,157.5,162.5,480,nov,SBD,Wraps
1,82.5,Willy Brooks,CO,M,76.34,150,87.5,200,437.5,m3,SBD,Wraps
2,125,Robert Ledlow,OK,M,122.7,195,122.5,227.5,545,m1,SBD,Wraps
1,110,Daniel Sobczak,OK,M,106.59,180,85,237.5,502.5,nov,SBD,Wraps
2,75,Anthony Vu,OK,M,69.94,127.5,110,165,402.5,jr,SBD,Wraps
1,75,Asher Aldrich,OK,M,72.57,137.5,92.5,180,410,jr,SBD,Wraps
1,110,Jacob Hitchcock,OK,M,109.91,185,122.5,192.5,500,teen,SBD,Wraps
1,125,Pippin Taylor,AR,M,120.61,182.5,127.5,202.5,512.5,nov,SBD,Wraps
1,125,Pippin Taylor,AR,M,120.61,182.5,127.5,202.5,512.5,p+f,SBD,Wraps
1,82.5,James Stovall,IL,M,82.42,147.5,92.5,177.5,417.5,m4,SBD,Wraps
3,100,Jacob Embrey,OK,M,98.34,140,117.5,190,447.5,nov,SBD,Wraps
1,75,Joshua Bell,OK,M,70.03,120,77.5,157.5,355,p+f,SBD,Wraps
1,100,Richard Barker,OK,M,95.07,115,97.5,155,367.5,m4,SBD,Wraps
DQ,75,Trey Blankenship,OK,M,73.66,192.5,,217.5,,jr,SBD,Wraps
1,90,Veryl Pulliam,OK,M,86.32,62.5,62.5,122.5,247.5,m4,SBD,Wraps
DQ,125,Douglas Brown,CO,M,111.27,,175,230,,m1,SBD,Wraps
1,90,Alex Moore,OK,M,89.68,,150,272.5,422.5,jr,BD,Raw
1,82.5,Ben Sherwood,TX,M,78.2,,147.5,232.5,380,pure,BD,Raw
1,100,Vincent Wiley,TX,M,94.35,,142.5,265,407.5,sm1,BD,Raw
1,125,Douglas Brown,CO,M,111.27,,175,230,405,m1,BD,Raw
1,125,Eddie Koon,KS,M,121.65,,167.5,245,412.5,mp,BD,Raw
1,90,Michael Ellis,AR,M,88.36,,125,205,330,nov,BD,Raw
2,90,Prashant Patel,OK,M,84.96,,105,182.5,287.5,jr,BD,Raw
1,75,Danny Harris,OK,M,73.35,,52.5,87.5,140,m2,BD,Raw
1,75,Danny Harris,OK,M,73.35,,52.5,87.5,140,mp,BD,Raw
DQ,125,Jonathan Impson,OK,M,114.71,,,,,teen,BD,Raw
DQ,125,Luke Hillman,OK,M,118.12,,,,,nov,BD,Raw
1,100,Randall Henderson,KS,M,96.12,,187.5,332.5,520,pure,BD,Single-ply
1,125,Peter Jackson,KS,M,114.71,,200,287.5,487.5,m2,BD,Single-ply
1,140+,Leonard Willison,IA,M,158.3,,270,220,490,m1,BD,Single-ply
DQ,125,Mike Miller #1,IA,M,118.25,,,237.5,,m1,BD,Single-ply
