Division,WeightClassKg,Place,Name,Team,BodyweightKg,Best3SquatKg,Best3BenchKg,Best3DeadliftKg,TotalKg,Equipment,Event,Sex
Boys,51.71,1,Gilbert Sanchez,San Diego,51.44,154.22,99.79,149.69,403.7,Single-ply,SBD,M
Boys,51.71,2,Bruizer Del Bosque,Bishop,48.72,154.22,86.18,149.69,390.09,Single-ply,SBD,M
Boys,55.79,3,Richie Villa,Bloomington,51.8,129.27,95.25,142.88,367.41,Single-ply,SBD,M
Boys,51.71,4,Christian Obregon,Dilley,50.17,140.61,86.18,136.08,362.87,Single-ply,SBD,M
Boys,51.71,5,Drew Haas,Hallettsville,51.07,129.27,56.7,122.47,308.44,Single-ply,SBD,M
Boys,51.71,6,Buster Dodge,Refugio,51.62,117.93,63.5,122.47,303.91,Single-ply,SBD,M
Boys,51.71,7,Garrett Wildman,Banquete,51.17,111.13,58.97,122.47,292.57,Single-ply,SBD,M
Boys,51.71,8,Jason Samaniego,Altair Rice,50.62,104.33,49.9,136.08,290.3,Single-ply,SBD,M
Boys,51.71,9,Alexis Esparza,Santa Maria,50.53,102.06,68.04,115.67,285.76,Single-ply,SBD,M
Boys,51.71,10,Max Obregon,Dilley,48.35,90.72,77.11,83.91,251.74,Single-ply,SBD,M
Boys,55.79,1,Michael Casarez,Three Rivers,55.52,183.7,95.25,185.97,464.93,Single-ply,SBD,M
Boys,59.87,2,Christian Sanchez,Cotulla,55.97,140.61,90.72,165.56,396.89,Single-ply,SBD,M
Boys,55.79,3,Jonathan Starks,Banquete,55.7,147.42,90.72,156.49,394.63,Single-ply,SBD,M
Boys,55.79,4,Rj Hinojosa,Banquete,54.7,147.42,83.91,147.42,378.75,Single-ply,SBD,M
Boys,55.79,5,Ricky Gonzalez,San Diego,54.52,151.95,74.84,147.42,374.21,Single-ply,SBD,M
Boys,55.79,6,Gustavo Ayala,Cotulla,54.98,127.01,79.38,154.22,360.61,Single-ply,SBD,M
Boys,59.87,7,Kalup Guerrero,Charlotte,56.02,122.47,79.38,158.76,360.61,Single-ply,SBD,M
Boys,55.79,8,Prendi Garcia,Dilley,55.07,138.35,81.65,138.35,358.34,Single-ply,SBD,M
Boys,55.79,9,Dylan Torres,Runge,54.34,136.08,70.31,147.42,353.8,Single-ply,SBD,M
Boys,55.79,10,Alan Espinosa,Dilley,54.7,129.27,74.84,138.35,342.46,Single-ply,SBD,M
Boys,59.87,1,Travis Charles,Bishop,59.87,208.65,111.13,215.46,535.24,Single-ply,SBD,M
Boys,59.87,2,Tristian Salinas,Santa Rosa,59.42,192.78,127.01,192.78,512.56,Single-ply,SBD,M
Boys,59.87,3,Darion McMahan,Stockdale,59.6,199.58,113.4,185.97,498.95,Single-ply,SBD,M
Boys,59.87,4,Chase Dolezal,Hallettsville,59.78,185.97,99.79,183.7,469.47,Single-ply,SBD,M
Boys,59.87,5,Rico Rodriguez,San Diego,59.6,163.29,117.93,183.7,464.93,Single-ply,SBD,M
Boys,59.87,6,Ubaldo Guzman,Weimar,59.78,172.37,111.13,167.83,451.32,Single-ply,SBD,M
Boys,59.87,7,Arnold Bueno,Banquete,59.51,170.1,108.86,163.29,442.25,Single-ply,SBD,M
Boys,59.87,8,Rene Rubalcava,San Diego,59.6,185.97,106.59,142.88,435.45,Single-ply,SBD,M
Boys,67.13,9,Joel Garcia,Cotulla,59.96,172.37,97.52,158.76,428.64,Single-ply,SBD,M
Boys,67.13,1,Adam Guerrero #1,George West,66.68,242.67,117.93,204.12,564.72,Single-ply,SBD,M
Boys,67.13,2,Marty Garza,Jourdanton,66.59,213.19,136.08,204.12,553.38,Single-ply,SBD,M
Boys,67.13,3,Abram Ramirez,Hebbronville,66.59,197.31,136.08,210.92,544.31,Single-ply,SBD,M
Boys,67.13,4,Rene Molina,Hebbronville,66.59,204.12,113.4,185.97,503.49,Single-ply,SBD,M
Boys,67.13,5,Gabriel Ramirez,Ben Bolt-Palito Blanco,66.32,188.24,120.2,192.78,501.22,Single-ply,SBD,M
Boys,67.13,6,Benny Ray Castor,Cotulla,67.13,190.51,102.06,190.51,483.08,Single-ply,SBD,M
Boys,67.13,7,Kevin Guerrero,Hebbronville,66.59,174.63,108.86,195.04,478.54,Single-ply,SBD,M
Boys,74.84,8,Mark Ruiz,Cotulla,67.31,172.37,104.33,181.44,458.13,Single-ply,SBD,M
Boys,67.13,9,Lance Howard,Altair Rice,64.77,181.44,102.06,172.37,455.86,Single-ply,SBD,M
Boys,67.13,10,Tomas Moreno,Weimar,61.42,183.7,92.99,174.63,451.32,Single-ply,SBD,M
Boys,67.13,DQ,Gino Dodge,Refugio,64.95,,,,,Single-ply,SBD,M
Boys,74.84,1,Alex Medrano,Dilley,74.75,226.8,158.76,240.4,625.96,Single-ply,SBD,M
Boys,74.84,2,Aaron Lopez,Jourdanton,71.4,215.46,106.59,190.51,512.56,Single-ply,SBD,M
Boys,82.1,3,Mario Munoz,Center Point,75.07,208.65,111.13,181.44,501.22,Single-ply,SBD,M
Boys,74.84,4,Tyler Cardenas,Schulenburg,74.12,176.9,124.74,188.24,489.88,Single-ply,SBD,M
Boys,74.84,5,Jamy Adams,Altair Rice,73.03,204.12,102.06,176.9,483.08,Single-ply,SBD,M
Boys,74.84,6,Will Perrin,Universal City Randolph,72.3,188.24,83.91,204.12,476.27,Single-ply,SBD,M
Boys,74.84,7,Jose Luis Garcia,Santa Maria,73.39,185.97,83.91,201.85,471.74,Single-ply,SBD,M
Boys,82.1,8,Jose Guzman,Bloomington,75.02,156.49,104.33,208.65,469.47,Single-ply,SBD,M
Boys,74.84,9,Margarito Garcia,Santa Maria,72.48,181.44,95.25,188.24,464.93,Single-ply,SBD,M
Boys,74.84,10,Elijio Montalvo,Falfurrias,69.67,167.83,83.91,183.7,435.45,Single-ply,SBD,M
Boys,82.1,1,Marty Saenz,San Diego,79.38,265.35,133.81,258.55,657.71,Single-ply,SBD,M
Boys,82.1,2,David Garza,Cotulla,79.65,208.65,127.01,229.06,564.72,Single-ply,SBD,M
Boys,82.1,3,Ryan de la Cruz,Ben Bolt-Palito Blanco,80.92,213.19,124.74,226.8,564.72,Single-ply,SBD,M
Boys,82.1,4,Dillion Brunet,Center Point,80.47,222.26,122.47,217.72,562.45,Single-ply,SBD,M
Boys,82.1,5,Matt Garcia,Ben Bolt-Palito Blanco,80.2,197.31,129.27,204.12,530.7,Single-ply,SBD,M
Boys,82.1,6,Philip Barrientos,Bishop,81.83,188.24,122.47,217.72,528.44,Single-ply,SBD,M
Boys,82.1,7,Tanner Heffner,Schulenburg,80.01,192.78,124.74,190.51,508.02,Single-ply,SBD,M
Boys,82.1,DQ,Guy Garcia,Dilley,75.75,,,,,Single-ply,SBD,M
Boys,82.1,DQ,Thomas Garcia,Dilley,77.84,199.58,129.27,,,Single-ply,SBD,M
Boys,82.1,DQ,Rick Strong,Santa Rosa,78.93,217.72,,,,Single-ply,SBD,M
Boys,89.81,1,Kirk Salinas,Banquete,83.28,254.01,142.88,219.99,616.89,Single-ply,SBD,M
Boys,89.81,2,Alfonso Montalvo,Riviera Kaufer,85.28,260.82,136.08,208.65,605.55,Single-ply,SBD,M
Boys,89.81,3,Juan Villarreal #2,Santa Rosa,88.09,256.28,127.01,215.46,598.74,Single-ply,SBD,M
Boys,89.81,4,Korry Huddleston,Yorktown,88.09,240.4,140.61,204.12,585.13,Single-ply,SBD,M
Boys,89.81,5,Nathan Morin,Three Rivers,87.63,238.14,120.2,219.99,578.33,Single-ply,SBD,M
Boys,89.81,6,Abraham Castillo,Altair Rice,86.91,222.26,131.54,213.19,566.99,Single-ply,SBD,M
Boys,89.81,7,AJ Alvarez,Bishop,86.23,215.46,124.74,219.99,560.19,Single-ply,SBD,M
Boys,89.81,8,Chase Wiatrek,Poth,88,208.65,129.27,208.65,546.58,Single-ply,SBD,M
Boys,89.81,9,Demarcus Tillman,Altair Rice,87.18,217.72,122.47,204.12,544.31,Single-ply,SBD,M
Boys,89.81,10,Reno Perez,San Diego,84.64,224.53,117.93,199.58,542.04,Single-ply,SBD,M
Boys,89.81,11,James Garner,Altair Rice,88.99,188.24,117.93,204.12,510.29,Single-ply,SBD,M
Boys,99.79,1,Alex Costilla,Falfurrias,94.98,285.76,190.51,251.74,728.02,Single-ply,SBD,M
Boys,99.79,2,Luis Lopez #3,San Diego,95.71,310.71,151.95,231.33,694,Single-ply,SBD,M
Boys,99.79,3,John Herrera,Banquete,95.62,260.82,156.49,240.4,657.71,Single-ply,SBD,M
Boys,99.79,4,Sef Vargas,Refugio,98.16,249.48,131.54,206.38,587.4,Single-ply,SBD,M
Boys,99.79,5,Abel Gonzalez,Dilley,90.08,240.4,108.86,208.65,557.92,Single-ply,SBD,M
Boys,99.79,6,Ivan Gonzalez,Ben Bolt-Palito Blanco,91.26,188.24,142.88,215.46,546.58,Single-ply,SBD,M
Boys,99.79,7,Tony Ledesma,Riviera Kaufer,94.17,215.46,113.4,204.12,532.97,Single-ply,SBD,M
Boys,99.79,8,Enrique Lugo,Jourdanton,92.99,204.12,124.74,195.04,523.9,Single-ply,SBD,M
Boys,99.79,9,Heriberto Canales,Hebbronville,96.07,201.85,111.13,210.92,523.9,Single-ply,SBD,M
Boys,99.79,10,Josh Pina,Odem,99.06,201.85,151.95,170.1,523.9,Single-ply,SBD,M
Boys,109.77,1,Andy Costilla,Falfurrias,105.23,294.84,158.76,247.21,700.8,Single-ply,SBD,M
Boys,109.77,2,Jon Garcia,Ben Bolt-Palito Blanco,108.86,249.48,170.1,222.26,641.83,Single-ply,SBD,M
Boys,109.77,3,Ivan Gonzalez,Bruni,107.05,226.8,133.81,272.16,632.76,Single-ply,SBD,M
Boys,109.77,4,Anthony Fish,Poth,108.86,242.67,133.81,204.12,580.6,Single-ply,SBD,M
Boys,109.77,5,John Mendoza,Karnes City,107.41,204.12,131.54,240.4,576.06,Single-ply,SBD,M
Boys,109.77,6,Tristan Wendt,Schulenburg,109.13,226.8,142.88,204.12,573.79,Single-ply,SBD,M
Boys,109.77,7,Alex Garcia #6,San Diego,107.23,238.14,131.54,199.58,569.26,Single-ply,SBD,M
Boys,109.77,8,Daniel Diaz,Three Rivers,100.15,226.8,136.08,192.78,555.65,Single-ply,SBD,M
Boys,109.77,9,Cole Callaway,Universal City Randolph,107.23,201.85,151.95,190.51,544.31,Single-ply,SBD,M
Boys,109.77,10,Rick Gutierrez,Bishop,100.06,208.65,127.01,190.51,526.17,Single-ply,SBD,M
Boys,124.74,1,Taylor Henning,Refugio,124.74,281.23,174.63,238.14,694,Single-ply,SBD,M
Boys,124.74,2,Michael Dominguez,Hebbronville,124.74,233.6,142.88,231.33,607.81,Single-ply,SBD,M
Boys,124.74,3,Jonovan Allen,Altair Rice,124.74,215.46,138.35,226.8,580.6,Single-ply,SBD,M
Boys,124.74,4,Edwin Castelleja,Charlotte,124.74,204.12,129.27,235.87,569.26,Single-ply,SBD,M
Boys,124.74,5,Rolando Garza,Hebbronville,124.74,215.46,117.93,215.46,548.85,Single-ply,SBD,M
Boys,124.74,6,Raul Loza,Natalia,124.74,235.87,111.13,190.51,537.51,Single-ply,SBD,M
Boys,124.74,7,Eli Garcia,George West,124.74,219.99,120.2,174.63,514.83,Single-ply,SBD,M
Boys,124.74,8,Aaron Ramos,Falfurrias,124.74,192.78,99.79,204.12,496.68,Single-ply,SBD,M
Boys,124.74,DQ,Matthew Grimaldo,George West,124.74,,,,,Single-ply,SBD,M
Boys,124.74,DQ,Clarence Burdett,Falfurrias,124.74,181.44,,,,Single-ply,SBD,M
Boys,124.74,DQ,Brodie Ruiz,Three Rivers,124.74,,,,,Single-ply,SBD,M
Boys,124.74+,1,Mario Alaniz,San Diego,131.54,233.6,158.76,233.6,625.96,Single-ply,SBD,M
Boys,124.74+,2,Manuel Tijerina,Jourdanton,133.81,217.72,145.15,256.28,619.15,Single-ply,SBD,M
Boys,124.74+,3,Reuben Ortiz,Refugio,131.54,269.89,129.27,199.58,598.74,Single-ply,SBD,M
Boys,124.74+,4,Tyler Verette,Jourdanton,131.54,195.04,161.03,222.26,578.33,Single-ply,SBD,M
Boys,124.74+,5,Chad Davis #3,Altair Rice,131.54,213.19,138.35,226.8,578.33,Single-ply,SBD,M
Boys,124.74+,6,Emmitt Spurlock,Rocksprings,131.54,217.72,142.88,206.38,566.99,Single-ply,SBD,M
Boys,124.74+,7,Trent Rhodes,Center Point,131.54,233.6,136.08,190.51,560.19,Single-ply,SBD,M
Boys,124.74+,DQ,Miguel Costilla,Cotulla,131.54,,,,,Single-ply,SBD,M
Boys,124.74+,DQ,Jacob Ortiz,Agua Dulce,131.54,213.19,102.06,,,Single-ply,SBD,M
