Division,WeightClassKg,Place,Name,Team,BodyweightKg,Best3SquatKg,Best3BenchKg,Best3DeadliftKg,TotalKg,Equipment,Event,Sex
Boys,51.71,1,Jacob Guerrero,Yorktown,50.89,138.35,72.57,138.35,349.27,Single-ply,SBD,M
Boys,51.71,2,Bryan Peralta,Yorktown,51.53,124.74,65.77,140.61,331.12,Single-ply,SBD,M
Boys,51.71,3,Adrian Linares,Victoria West,44.81,120.2,72.57,127.01,319.78,Single-ply,SBD,M
Boys,51.71,4,Jaime Caltzonzin,Victoria West,51.71,88.45,49.9,95.25,233.6,Single-ply,SBD,M
Boys,51.71,DQ,Brandon Rodriguez #7,Victoria East,51.71,,36.29,63.5,,Single-ply,SBD,M
Boys,55.79,1,Jeremiah Zelaya,Victoria East,55.34,222.26,106.59,199.58,528.44,Single-ply,SBD,M
Boys,55.79,2,Chase Chapa,Port Lavaca Calhoun,54.43,154.22,83.91,192.78,430.91,Single-ply,SBD,M
Boys,55.79,3,Evan Smith,Port Lavaca Calhoun,55.52,149.69,86.18,158.76,394.63,Single-ply,SBD,M
Boys,55.79,4,Wha Htoo,Port Lavaca Calhoun,52.07,124.74,72.57,136.08,333.39,Single-ply,SBD,M
Boys,55.79,5,Freddy Samano,Victoria West,55.07,133.81,72.57,120.2,326.59,Single-ply,SBD,M
Boys,55.79,6,Elisha Garcia,Palacios,54.88,124.74,68.04,127.01,319.78,Single-ply,SBD,M
Boys,55.79,DQ,Ryan Garcia #2,Cuero,53.52,,,,,Single-ply,SBD,M
Boys,59.87,1,Moises Amaro,Palacios,59.33,219.99,127.01,188.24,535.24,Single-ply,SBD,M
Boys,59.87,2,Jakob Cortez,Port Lavaca Calhoun,59.51,197.31,99.79,201.85,498.95,Single-ply,SBD,M
Boys,59.87,3,Gavin Muniz,Victoria West,58.33,147.42,92.99,156.49,396.89,Single-ply,SBD,M
Boys,59.87,4,Regan Villarreal,Kenedy,59.06,142.88,70.31,151.95,365.14,Single-ply,SBD,M
Boys,59.87,5,Dylan Crye,Hallettsville,56.7,142.88,72.57,145.15,360.61,Single-ply,SBD,M
Boys,59.87,DQ,Adan Hernandez,Victoria West,59.87,,,,,Single-ply,SBD,M
Boys,59.87,DQ,Adrian Valdez,Goliad,59.87,,,,,Single-ply,SBD,M
Boys,59.87,DQ,Kevion Terrell,Victoria St. Joseph,59.87,,,,,Single-ply,SBD,M
Boys,59.87,DQ,Jonathan Mendoza,Ingleside,59.33,,,,,Single-ply,SBD,M
Boys,67.13,1,Landen Valdez,Victoria West,66.04,190.51,129.27,174.63,494.42,Single-ply,SBD,M
Boys,67.13,2,Miguel Sanchez,Palacios,60.15,174.63,90.72,174.63,439.98,Single-ply,SBD,M
Boys,67.13,3,Francisco Huerta,Yoakum,67.13,142.88,72.57,156.49,371.95,Single-ply,SBD,M
Boys,67.13,4,Dominic Diaz,Victoria West,67.13,145.15,70.31,142.88,358.34,Single-ply,SBD,M
Boys,67.13,5,Seth Birmingham,Victoria West,65.14,136.08,81.65,131.54,349.27,Single-ply,SBD,M
Boys,67.13,DQ,Amber House #2,Victoria East,63.5,,24.95,54.43,,Single-ply,SBD,M
Boys,67.13,DQ,Lupe McGinnis,Yorktown,67.13,,,,,Single-ply,SBD,M
Boys,74.84,1,Noah Martinez #2,Victoria West,72.12,233.6,138.35,217.72,589.67,Single-ply,SBD,M
Boys,74.84,2,Alvin Amador,Kenedy,72.57,185.97,104.33,204.12,494.42,Single-ply,SBD,M
Boys,74.84,3,Nathaniel Reyna,Victoria West,72.21,192.78,111.13,185.97,489.88,Single-ply,SBD,M
Boys,74.84,4,Daniel Zuniga,Ingleside,67.59,138.35,79.38,145.15,362.87,Single-ply,SBD,M
Boys,74.84,DQ,Alex Bonorden,Victoria St. Joseph,74.84,,,,,Single-ply,SBD,M
Boys,74.84,DQ,Jacob Decker,Victoria West,74.84,,,,,Single-ply,SBD,M
Boys,74.84,DQ,Trenton Carter,Victoria West,73.94,183.7,,,,Single-ply,SBD,M
Boys,82.1,1,Seth O'Canas,Victoria West,77.93,226.8,136.08,201.85,564.72,Single-ply,SBD,M
Boys,82.1,2,Jace Vasquez,Victoria West,78.38,192.78,131.54,215.46,539.77,Single-ply,SBD,M
Boys,82.1,3,Daron Moncevais,Palacios,76.38,190.51,129.27,199.58,519.36,Single-ply,SBD,M
Boys,82.1,4,Cameron Mata,Yoakum,82.1,176.9,88.45,181.44,446.79,Single-ply,SBD,M
Boys,82.1,5,Josh Sanger,Yorktown,78.2,181.44,86.18,167.83,435.45,Single-ply,SBD,M
Boys,82.1,6,Aharon de los Santos,Yoakum,82.1,165.56,92.99,142.88,401.43,Single-ply,SBD,M
Boys,82.1,7,Mauricio Pecina,Yoakum,79.83,131.54,95.25,156.49,383.29,Single-ply,SBD,M
Boys,82.1,8,Nathan Nguyen,Palacios,78.11,131.54,72.57,142.88,347,Single-ply,SBD,M
Boys,82.1,DQ,Payton Terrell,Victoria St. Joseph,82.1,,,,,Single-ply,SBD,M
Boys,82.1,DQ,Austin Meyer,Victoria West,82.1,,,,,Single-ply,SBD,M
Boys,82.1,DQ,Devin Mendez,Victoria West,82.1,,,,,Single-ply,SBD,M
Boys,82.1,DQ,Alann Alvarado,Yoakum,76.29,142.88,,,,Single-ply,SBD,M
Boys,89.81,1,Jaime Rios #1,Port Lavaca Calhoun,89.36,276.69,158.76,251.74,687.19,Single-ply,SBD,M
Boys,89.81,2,Jonathan Oviedo,Victoria East,89.81,290.3,176.9,215.46,682.66,Single-ply,SBD,M
Boys,89.81,3,Sylias Montgomery,Port Lavaca Calhoun,88.54,272.16,122.47,272.16,666.78,Single-ply,SBD,M
Boys,89.81,4,David Zavala,Palacios,82.83,181.44,90.72,197.31,469.47,Single-ply,SBD,M
Boys,89.81,5,Derek Luna,Louise,87.32,174.63,102.06,190.51,467.2,Single-ply,SBD,M
Boys,89.81,6,Danny Williams,Louise,88.27,167.83,99.79,195.04,462.66,Single-ply,SBD,M
Boys,89.81,7,Hayden Land,Victoria St. Joseph,88.27,129.27,77.11,149.69,356.07,Single-ply,SBD,M
Boys,89.81,DQ,Caleb Limon,Victoria St. Joseph,89.81,,,,,Single-ply,SBD,M
Boys,89.81,DQ,Isaiah Estrade,Victoria St. Joseph,89.81,,,,,Single-ply,SBD,M
Boys,89.81,DQ,Ellian Perez,Palacios,89.81,,,,,Single-ply,SBD,M
Boys,89.81,DQ,Gabriel Watts,Victoria East,89.81,,,,,Single-ply,SBD,M
Boys,89.81,DQ,Mattheau Loa,Victoria West,89.81,,,,,Single-ply,SBD,M
Boys,89.81,DQ,Brandon Basquez,Yoakum,83.55,208.65,111.13,,,Single-ply,SBD,M
Boys,89.81,DQ,Nicolas Delgado,Victoria West,89.09,208.65,,,,Single-ply,SBD,M
Boys,89.81,DQ,Miguel Buenrostro,Yoakum,88.72,,,,,Single-ply,SBD,M
Boys,99.79,1,Darean Sauceda,Victoria East,99.79,222.26,154.22,229.06,605.55,Single-ply,SBD,M
Boys,99.79,2,Luke Rodriguez,Ingleside,92.8,217.72,133.81,185.97,537.51,Single-ply,SBD,M
Boys,99.79,3,Caleb Smith #10,Victoria West,97.98,217.72,129.27,181.44,528.44,Single-ply,SBD,M
Boys,99.79,4,Landon Sluka,Hallettsville,96.16,190.51,117.93,195.04,503.49,Single-ply,SBD,M
Boys,99.79,5,Tyler Baladez,Victoria West,96.71,195.04,120.2,181.44,496.68,Single-ply,SBD,M
Boys,99.79,6,Zach Guerra,Goliad,94.89,167.83,104.33,170.1,442.25,Single-ply,SBD,M
Boys,99.79,7,Ethan Pompa,Yorktown,99.79,167.83,97.52,167.83,433.18,Single-ply,SBD,M
Boys,99.79,8,Robert Perdziak,Hallettsville,93.53,161.03,99.79,167.83,428.64,Single-ply,SBD,M
Boys,99.79,DQ,Lucas Matthews,Victoria St. Joseph,99.79,,,,,Single-ply,SBD,M
Boys,99.79,DQ,Jacob Fuentez,Victoria West,92.99,158.76,,,,Single-ply,SBD,M
Boys,99.79,DQ,Caleb Cuellar,Hallettsville,91.81,,,,,Single-ply,SBD,M
Boys,109.77,1,Aaron Vasquez,Victoria East,109.23,278.96,176.9,226.8,682.66,Single-ply,SBD,M
Boys,109.77,2,Richard Villarreal,Kenedy,105.6,285.76,147.42,226.8,659.98,Single-ply,SBD,M
Boys,109.77,3,Jack Carmona,Victoria East,106.96,272.16,108.86,231.33,612.35,Single-ply,SBD,M
Boys,109.77,4,Marcus Avitia,Ingleside,106.14,238.14,167.83,201.85,607.81,Single-ply,SBD,M
Boys,109.77,5,Paul Rojas,Goliad,105.32,199.58,124.74,197.31,521.63,Single-ply,SBD,M
Boys,109.77,6,Ray Buckner,Victoria West,100.15,192.78,108.86,192.78,494.42,Single-ply,SBD,M
Boys,109.77,7,Martin Guerrero,Yorktown,100.33,163.29,90.72,163.29,417.3,Single-ply,SBD,M
Boys,109.77,8,Mateo Martinez,Goliad,102.87,158.76,83.91,170.1,412.77,Single-ply,SBD,M
Boys,109.77,9,Damian Diaz,Victoria West,102.6,181.44,70.31,158.76,410.5,Single-ply,SBD,M
Boys,109.77,10,Matthre Mariscal,Yoakum,103.24,151.95,77.11,129.27,358.34,Single-ply,SBD,M
Boys,109.77,DQ,Nate Beck,Victoria St. Joseph,105.32,,,,,Single-ply,SBD,M
Boys,109.77,DQ,Juan Lozano,Victoria West,106.78,149.69,,,,Single-ply,SBD,M
Boys,124.74,1,Noah Nelson,Victoria West,124.19,294.84,167.83,240.4,703.07,Single-ply,SBD,M
Boys,124.74,2,Clayton Klekar,Goliad,118.12,263.08,151.95,249.48,664.51,Single-ply,SBD,M
Boys,124.74,3,Ruben Rios,Victoria West,123.56,274.42,163.29,199.58,637.3,Single-ply,SBD,M
Boys,124.74,4,Tyler Neese,Victoria West,123.15,260.82,140.61,201.85,603.28,Single-ply,SBD,M
Boys,124.74,5,Kadrian Gonzales,Victoria West,115.39,213.19,124.74,229.06,566.99,Single-ply,SBD,M
Boys,124.74,6,Eloy Mendez,Victoria West,117.48,210.92,149.69,163.29,523.9,Single-ply,SBD,M
Boys,124.74,7,Ethan Carr,Palacios,112.76,176.9,136.08,163.29,476.27,Single-ply,SBD,M
Boys,124.74,8,Gabriel Medina,Victoria St. Joseph,112.76,147.42,90.72,154.22,392.36,Single-ply,SBD,M
Boys,124.74,DQ,Sergio Calvo,Victoria St. Joseph,124.74,,,,,Single-ply,SBD,M
Boys,124.74,DQ,Christopher Esquivel,Victoria West,124.74,,,,,Single-ply,SBD,M
Boys,124.74,DQ,Joshua Zatopek,Victoria West,124.74,,,,,Single-ply,SBD,M
Boys,124.74,DQ,Juan LeBron,Port Lavaca Calhoun,124.01,,,,,Single-ply,SBD,M
Boys,124.74+,1,Leo Madera,Port Lavaca Calhoun,146.51,308.44,176.9,260.82,746.16,Single-ply,SBD,M
Boys,124.74+,2,Ray Martinez,Port Lavaca Calhoun,137.62,285.76,179.17,217.72,682.66,Single-ply,SBD,M
Boys,124.74+,3,Xavier Perry,Goliad,142.97,278.96,136.08,215.46,630.49,Single-ply,SBD,M
Boys,124.74+,4,Cody Robert,Hallettsville,142.34,233.6,147.42,197.31,578.33,Single-ply,SBD,M
Boys,124.74+,5,Trevor Benavides,Victoria West,127.37,204.12,149.69,183.7,537.51,Single-ply,SBD,M
Boys,124.74+,6,Arturo Gallegos III,Ingleside,134.99,195.04,97.52,158.76,451.32,Single-ply,SBD,M
Boys,124.74+,7,DaWayne Haynes,Palacios,142.34,170.1,111.13,124.74,405.97,Single-ply,SBD,M
Boys,124.74+,DQ,Alex Garza,Victoria East,125.19,,,,,Single-ply,SBD,M
