Division,WeightClassKg,Place,Name,Team,BodyweightKg,Best3SquatKg,Best3BenchKg,Best3DeadliftKg,TotalKg,Equipment,Event,Sex
Boys,55.79,1,Michael Ramsey,Van Vleck,51.89,142.88,83.91,165.56,392.36,Single-ply,SBD,M
Boys,55.79,2,Michael Middaugh,Van Vleck,51.94,79.38,47.63,108.86,235.87,Single-ply,SBD,M
Boys,51.71,DQ,Zach Palmer,Van Vleck,50.8,,,86.18,,Single-ply,SBD,M
Boys,51.71,DQ,Adam Morton,Louise,50.89,,,,,Single-ply,SBD,M
Boys,51.71,DQ,Brian Morales,Needville,50.98,90.72,,,,Single-ply,SBD,M
Boys,51.71,DQ,Josh Cantu,Bloomington,44.72,,,,,Single-ply,SBD,M
Boys,51.71,DQ,Victor Andrade,Bloomington,45.54,,,,,Single-ply,SBD,M
Boys,55.79,1,Randy Holland,Clute Brazoswood,53.89,136.08,102.06,167.83,405.97,Single-ply,SBD,M
Boys,55.79,2,Dylan Elkins,Needville,52.71,156.49,102.06,145.15,403.7,Single-ply,SBD,M
Boys,55.79,3,Trey Marrero,Alvin,54.79,149.69,83.91,149.69,383.29,Single-ply,SBD,M
Boys,55.79,4,Justin Rios,Clute Brazoswood,55.52,115.67,58.97,138.35,312.98,Single-ply,SBD,M
Boys,55.79,5,Zach Sample,Edna,54.98,120.2,68.04,113.4,301.64,Single-ply,SBD,M
Boys,55.79,6,Maeson Lausch,Danbury,53.8,92.99,54.43,108.86,256.28,Single-ply,SBD,M
Boys,55.79,7,Jaime Pineda,Needville,54.16,68.04,58.97,127.01,254.01,Single-ply,SBD,M
Boys,59.87,8,Dillon Wakefield,Van Vleck,55.97,61.23,43.09,77.11,181.44,Single-ply,SBD,M
Boys,55.79,DQ,Brandon Brune,El Maton Tidehaven,52.89,,,,,Single-ply,SBD,M
Boys,55.79,DQ,Leighton Galvan,El Maton Tidehaven,55.43,,,,,Single-ply,SBD,M
Boys,59.87,1,Tj Foley,Edna,58.06,142.88,79.38,156.49,378.75,Single-ply,SBD,M
Boys,67.13,2,David Nunez,Edna,59.96,140.61,79.38,142.88,362.87,Single-ply,SBD,M
Boys,67.13,3,Jakob Rios,Clute Brazoswood,60.1,113.4,70.31,147.42,331.12,Single-ply,SBD,M
Boys,59.87,4,David Glover,Danbury,59.15,92.99,68.04,111.13,272.16,Single-ply,SBD,M
Boys,59.87,5,Aj Enriquez,Bloomington,59.6,83.91,52.16,113.4,249.48,Single-ply,SBD,M
Boys,59.87,DQ,Eric Rodriguez,Bloomington,57.06,70.31,,,,Single-ply,SBD,M
Boys,59.87,DQ,Matt Hoffman,Alvin,58.42,92.99,,,,Single-ply,SBD,M
Boys,59.87,DQ,Sean Glover,Danbury,56.34,,,,,Single-ply,SBD,M
Boys,59.87,DQ,Eduardo Trevino,Clute Brazoswood,59.69,,,,,Single-ply,SBD,M
Boys,59.87,DQ,Chris Garza #3,Ganado,59.15,,,,,Single-ply,SBD,M
Boys,67.13,1,Jose Jimenez #11,Palacios,66.22,195.04,127.01,204.12,526.17,Single-ply,SBD,M
Boys,67.13,2,Samuel Fisher,Bay City,65.95,165.56,102.06,195.04,462.66,Single-ply,SBD,M
Boys,67.13,3,Noah Seaman,Palacios,66.68,163.29,92.99,188.24,444.52,Single-ply,SBD,M
Boys,74.84,4,Da'Shawn Smith,Bay City,67.31,156.49,104.33,165.56,426.38,Single-ply,SBD,M
Boys,67.13,5,Develon Starr,Needville,63.32,142.88,97.52,154.22,394.63,Single-ply,SBD,M
Boys,67.13,6,Al-Delwin Nelson,Bay City,64.23,136.08,92.99,133.81,362.87,Single-ply,SBD,M
Boys,67.13,7,Alan Cabrera,Bloomington,66.5,83.91,47.63,102.06,233.6,Single-ply,SBD,M
Boys,67.13,DQ,Jordan Aguilar,Clute Brazoswood,64.77,136.08,,,,Single-ply,SBD,M
Boys,67.13,DQ,Chris Glass,Ganado,66.68,136.08,83.91,,,Single-ply,SBD,M
Boys,67.13,DQ,Kisean Callis,Needville,63.23,127.01,,,,Single-ply,SBD,M
Boys,67.13,DQ,Teran Casey,Van Vleck,66.5,,,,,Single-ply,SBD,M
Boys,67.13,DQ,Michael Latapie,Palacios,61.14,,,,,Single-ply,SBD,M
Boys,67.13,DQ,Josh Alvarez,Louise,67.13,,,,,Single-ply,SBD,M
Boys,67.13,DQ,Sergio Olvera,Needville,67.13,,,,,Single-ply,SBD,M
Boys,67.13,DQ,Kristian Grifaldo,Edna,67.13,,,,,Single-ply,SBD,M
Boys,67.13,DQ,Brandon Miladin,Van Vleck,66.5,136.08,70.31,,,Single-ply,SBD,M
Boys,74.84,1,Gabe Valladares,Van Vleck,73.48,172.37,117.93,181.44,471.74,Single-ply,SBD,M
Boys,74.84,2,Ta'Von Cantu,Edna,70.31,174.63,90.72,181.44,446.79,Single-ply,SBD,M
Boys,74.84,3,Eric Lucio,Bay City,72.3,165.56,83.91,179.17,428.64,Single-ply,SBD,M
Boys,74.84,4,Devon Pinon,Bloomington,74.39,170.1,92.99,149.69,412.77,Single-ply,SBD,M
Boys,74.84,5,Eric Hembling,Clute Brazoswood,74.21,138.35,77.11,167.83,383.29,Single-ply,SBD,M
Boys,74.84,6,Brazos Alexander,Alvin,73.3,111.13,83.91,147.42,342.46,Single-ply,SBD,M
Boys,74.84,7,AJ Garcia,Edna,73.57,127.01,63.5,151.95,342.46,Single-ply,SBD,M
Boys,74.84,8,Terry Godoy,Clute Brazoswood,69.94,124.74,79.38,136.08,340.19,Single-ply,SBD,M
Boys,74.84,DQ,Jerry Manning,Bay City,73.3,165.56,86.18,,,Single-ply,SBD,M
Boys,82.1,DQ,Brandon Litzau,El Maton Tidehaven,74.93,,,,,Single-ply,SBD,M
Boys,74.84,DQ,Denzell Banks,Edna,74.75,192.78,95.25,,,Single-ply,SBD,M
Boys,74.84,DQ,Colby Calk,Van Vleck,74.57,136.08,97.52,,,Single-ply,SBD,M
Boys,74.84,DQ,Mark Aguirre,Edna,74.84,,,,,Single-ply,SBD,M
Boys,74.84,DQ,Ricardo Barragan,Alvin,74.84,,,,,Single-ply,SBD,M
Boys,74.84,DQ,Chris Cabrera,Bloomington,74.84,,,,,Single-ply,SBD,M
Boys,82.1,1,Trustin Norris,Van Vleck,81.19,195.04,122.47,229.06,546.58,Single-ply,SBD,M
Boys,82.1,2,Jonathan Saenz,Clute Brazoswood,80.74,213.19,117.93,188.24,519.36,Single-ply,SBD,M
Boys,82.1,3,Stanley Thuy,Alvin,80.38,163.29,102.06,179.17,444.52,Single-ply,SBD,M
Boys,82.1,4,Raymond Gonazalez,Bay City,78.38,156.49,97.52,176.9,430.91,Single-ply,SBD,M
Boys,82.1,5,Earl Montalvo,Clute Brazoswood,79.29,158.76,106.59,151.95,417.3,Single-ply,SBD,M
Boys,82.1,6,Patrick Scopel,Danbury,81.47,156.49,88.45,163.29,408.23,Single-ply,SBD,M
Boys,82.1,7,Justin Fry,Van Vleck,75.39,108.86,97.52,158.76,365.14,Single-ply,SBD,M
Boys,82.1,8,Brandon Hicks,Danbury,80.01,129.27,86.18,140.61,356.07,Single-ply,SBD,M
Boys,82.1,DQ,Chance Muskiet,Bay City,81.37,,,,,Single-ply,SBD,M
Boys,82.1,DQ,D'Marcus Miles,Van Vleck,79.02,136.08,,,,Single-ply,SBD,M
Boys,82.1,DQ,Oziel Rios,Palacios,81.1,,,,,Single-ply,SBD,M
Boys,82.1,DQ,Wyatt Denson,Needville,80.2,,,,,Single-ply,SBD,M
Boys,82.1,DQ,Michael Hernandez,Edna,82.1,,,,,Single-ply,SBD,M
Boys,89.81,1,Luis Escobedo,Needville,88.99,213.19,145.15,204.12,562.45,Single-ply,SBD,M
Boys,89.81,2,Tanner Hohman,Alvin,83.91,215.46,115.67,192.78,523.9,Single-ply,SBD,M
Boys,89.81,3,Jadon Morales,Bay City,85.28,201.85,122.47,195.04,519.36,Single-ply,SBD,M
Boys,89.81,4,Marvin Watson,Van Vleck,86.09,195.04,99.79,174.63,469.47,Single-ply,SBD,M
Boys,89.81,5,Adrian Ruiz,Bay City,83.64,158.76,115.67,163.29,437.72,Single-ply,SBD,M
Boys,89.81,6,Mike Chavira,Alvin,84.37,163.29,106.59,165.56,435.45,Single-ply,SBD,M
Boys,89.81,7,Mario Cortes,Danbury,88,145.15,74.84,120.2,340.19,Single-ply,SBD,M
Boys,89.81,DQ,Aaron Sollock,Clute Brazoswood,83.73,,,,,Single-ply,SBD,M
Boys,89.81,DQ,Kyle Moerbe,El Maton Tidehaven,87.27,,,,,Single-ply,SBD,M
Boys,89.81,DQ,Jovito Mendez,Needville,88.99,183.7,,,,Single-ply,SBD,M
Boys,89.81,DQ,Ricky Lerma,Needville,89.81,,,,,Single-ply,SBD,M
Boys,99.79,1,Chris Sherrill,Bay City,96.98,240.4,158.76,226.8,625.96,Single-ply,SBD,M
Boys,99.79,2,Daniel Lema,Clute Brazoswood,98.88,219.99,136.08,229.06,585.13,Single-ply,SBD,M
Boys,99.79,3,Jorge Franco,Louise,96.71,181.44,104.33,172.37,458.13,Single-ply,SBD,M
Boys,99.79,4,Juwan Callies,Van Vleck,96.16,149.69,83.91,204.12,437.72,Single-ply,SBD,M
Boys,99.79,5,Carlos Martinez #16,Louise,99.7,181.44,106.59,149.69,437.72,Single-ply,SBD,M
Boys,99.79,6,Lucas Smith,Van Vleck,99.79,131.54,104.33,138.35,374.21,Single-ply,SBD,M
Boys,99.79,7,Trent Frost,Van Vleck,99.06,117.93,81.65,154.22,353.8,Single-ply,SBD,M
Boys,99.79,DQ,Nick Goza,Needville,99.43,,,,,Single-ply,SBD,M
Boys,99.79,DQ,Aj Kowalewski,Needville,98.79,,,,,Single-ply,SBD,M
Boys,99.79,DQ,Austin Soloman,Danbury,92.44,,,,,Single-ply,SBD,M
Boys,99.79,DQ,Adrian Ochoa,Needville,99.79,,,,,Single-ply,SBD,M
Boys,109.77,1,Alex MacLennan,Bay City,109.59,197.31,120.2,226.8,544.31,Single-ply,SBD,M
Boys,109.77,2,JR Rodriguez,Bay City,106.41,235.87,108.86,183.7,528.44,Single-ply,SBD,M
Boys,109.77,3,Cristian Vargas,Bay City,107.5,197.31,115.67,185.97,498.95,Single-ply,SBD,M
Boys,109.77,4,Paul Hill,Van Vleck,105.78,176.9,120.2,195.04,492.15,Single-ply,SBD,M
Boys,109.77,5,Luis Barron,Danbury,108.68,154.22,99.79,172.37,426.38,Single-ply,SBD,M
Boys,109.77,6,Christian Brown,Danbury,108.14,133.81,77.11,147.42,358.34,Single-ply,SBD,M
Boys,109.77,7,Stratton Garza,Danbury,104.14,113.4,74.84,124.74,312.98,Single-ply,SBD,M
Boys,109.77,DQ,Dylan Kallus,Edna,105.51,,,,,Single-ply,SBD,M
Boys,109.77,DQ,Danny Calixto,El Maton Tidehaven,107.5,197.31,,,,Single-ply,SBD,M
Boys,109.77,DQ,Tanner Chavana,Bloomington,103.42,,,,,Single-ply,SBD,M
Boys,124.74,1,Michael Garcia,Ganado,112.85,258.55,161.03,233.6,653.17,Single-ply,SBD,M
Boys,124.74,2,Curtis Emery,Alvin,113.31,244.94,151.95,249.48,646.37,Single-ply,SBD,M
Boys,124.74,3,Chris Shepherd,Alvin,111.31,249.48,124.74,244.94,619.15,Single-ply,SBD,M
Boys,124.74,4,James Marin,Alvin,124.74,226.8,158.76,219.99,605.55,Single-ply,SBD,M
Boys,124.74,5,Logan Robinson,Edna,116.57,226.8,124.74,238.14,589.67,Single-ply,SBD,M
Boys,124.74,6,Nick Dowdle,Bay City,111.04,174.63,88.45,183.7,446.79,Single-ply,SBD,M
Boys,124.74,DQ,Jacon Sanchez,Alvin,123.29,192.78,,,,Single-ply,SBD,M
Boys,124.74,DQ,Anthony Norman,Edna,124.74,,,,,Single-ply,SBD,M
Boys,124.74+,1,Devvon Miles,Clute Brazoswood,155.67,190.51,138.35,204.12,532.97,Single-ply,SBD,M
Boys,124.74+,DQ,Mason Nesvadba,Needville,137.08,,,,,Single-ply,SBD,M
