Division,WeightClassKg,Place,Name,Team,BodyweightKg,Best3SquatKg,Best3BenchKg,Best3DeadliftKg,TotalKg,Equipment,Event,Sex
Boys,51.71,1,Ethan Stack,Scurry-Rosser,51.62,133.81,86.18,154.22,374.21,Single-ply,SBD,M
Boys,51.71,2,Brandon Stidham,Gladewater Sabine,47.72,140.61,77.11,136.08,353.8,Single-ply,SBD,M
Boys,51.71,3,Aaron Matche,Fairfield,48.99,108.86,68.04,90.72,267.62,Single-ply,SBD,M
Boys,51.71,4,Gavin Niedich,Fairfield,49.9,102.06,56.7,104.33,263.08,Single-ply,SBD,M
Boys,51.71,5,Bryce Roundtree,Madisonville,49.31,97.52,61.23,99.79,258.55,Single-ply,SBD,M
Boys,55.79,1,Adam Elkins #2,Dawson,55.79,138.35,56.7,142.88,337.93,Single-ply,SBD,M
Boys,55.79,2,Alberto Gonzalez,Centerville,55.16,113.4,63.5,140.61,317.51,Single-ply,SBD,M
Boys,55.79,3,Chad Collup,Scurry-Rosser,54.25,117.93,58.97,131.54,308.44,Single-ply,SBD,M
Boys,55.79,4,Sergio Izquierdo,Fairfield,54.88,127.01,54.43,127.01,308.44,Single-ply,SBD,M
Boys,55.79,5,Angel Sosa,Rice,55.34,158.76,,,158.76,Single-ply,S,M
Boys,59.87,1,Chase Kirby,Dawson,59.42,179.17,99.79,174.63,453.59,Single-ply,SBD,M
Boys,59.87,2,Alex Rodriguez #9,Fairfield,59.87,181.44,74.84,151.95,408.23,Single-ply,SBD,M
Boys,59.87,3,Reece Walker,Dawson,59.06,145.15,92.99,158.76,396.89,Single-ply,SBD,M
Boys,59.87,4,Brendan Alexander,Pollok Central,58.79,142.88,83.91,165.56,392.36,Single-ply,SBD,M
Boys,59.87,5,Corbin Donoho,Corsicana Mildred,57.79,145.15,86.18,158.76,390.09,Single-ply,SBD,M
Boys,59.87,6,Ricardo Garcia,Mexia,59.87,145.15,77.11,156.49,378.75,Single-ply,SBD,M
Boys,59.87,7,Fernando Padilla,Mexia,59.87,122.47,90.72,163.29,376.48,Single-ply,SBD,M
Boys,59.87,8,Jaydon Clemens,Italy,57.52,142.88,97.52,124.74,365.14,Single-ply,SBD,M
Boys,59.87,9,Ethan Rodriguez,Lorena,58.79,136.08,68.04,161.03,365.14,Single-ply,SBD,M
Boys,59.87,10,Michael Rosales,Rusk,58.79,142.88,77.11,142.88,362.87,Single-ply,SBD,M
Boys,59.87,11,Bobby Sanchez,Centerville,56.79,138.35,74.84,147.42,360.61,Single-ply,SBD,M
Boys,59.87,12,Richard Charlson,Fairfield,59.87,124.74,61.23,83.91,269.89,Single-ply,SBD,M
Boys,67.13,1,Mauro Gallegos,Gladewater Sabine,65.68,204.12,111.13,185.97,501.22,Single-ply,SBD,M
Boys,67.13,2,Quinn Johnson,Winona,65.68,217.72,90.72,190.51,498.95,Single-ply,SBD,M
Boys,67.13,3,Jose Rodriguez #4,Fairfield,67.13,204.12,90.72,204.12,498.95,Single-ply,SBD,M
Boys,67.13,4,Josh Williams,Troup,65.77,185.97,79.38,204.12,469.47,Single-ply,SBD,M
Boys,67.13,5,DeMarcus McQurter,Hubbard,66.95,179.17,97.52,190.51,467.2,Single-ply,SBD,M
Boys,67.13,6,Will Ferlet,Dawson,67.13,170.1,111.13,185.97,467.2,Single-ply,SBD,M
Boys,67.13,7,Timarco Cordon,Fairfield,65.32,185.97,102.06,170.1,458.13,Single-ply,SBD,M
Boys,67.13,8,Zane Anderson,Fairfield,65.77,185.97,95.25,170.1,451.32,Single-ply,SBD,M
Boys,67.13,9,Caleb McNair,Rusk,64.77,176.9,108.86,158.76,444.52,Single-ply,SBD,M
Boys,67.13,10,Gilbert Garcia,Longview Spring Hill,63.68,158.76,104.33,172.37,435.45,Single-ply,SBD,M
Boys,67.13,DQ,Juan Perez #10,Rice,63.68,,,,,Single-ply,SBD,M
Boys,74.84,1,Jordan Creutz,Maud,74.84,215.46,117.93,201.85,535.24,Single-ply,SBD,M
Boys,74.84,2,Kolby Pederson,Hubbard,74.12,215.46,117.93,199.58,532.97,Single-ply,SBD,M
Boys,74.84,3,Sergio Villereal,Centerville,73.03,217.72,111.13,192.78,521.63,Single-ply,SBD,M
Boys,74.84,4,Azaya Patrick,Teague,73.94,195.04,108.86,210.92,514.83,Single-ply,SBD,M
Boys,74.84,5,Ulises Ramirez,Fairfield,72.12,215.46,99.79,190.51,505.76,Single-ply,SBD,M
Boys,74.84,6,Byron Johnson #1,Rusk,73.48,199.58,106.59,199.58,505.76,Single-ply,SBD,M
Boys,74.84,7,Hunter Hernandez #2,Jarrell,74.03,181.44,113.4,201.85,496.68,Single-ply,SBD,M
Boys,74.84,8,Dakota Grant,Simms Bowie,73.94,170.1,108.86,215.46,494.42,Single-ply,SBD,M
Boys,74.84,9,Jeremy Humphries,Corsicana Mildred,71.3,181.44,122.47,188.24,492.15,Single-ply,SBD,M
Boys,74.84,10,Abraham Sanchez,Centerville,72.76,172.37,113.4,204.12,489.88,Single-ply,SBD,M
Boys,74.84,11,Fallon Little,Corsicana Mildred,74.48,170.1,111.13,204.12,485.34,Single-ply,SBD,M
Boys,74.84,12,David Thomas #8,Fairfield,74.39,183.7,97.52,181.44,462.66,Single-ply,SBD,M
Boys,74.84,13,Sutton Bonner,Fairfield,74.84,192.78,104.33,142.88,439.98,Single-ply,SBD,M
Boys,74.84,14,Hunter Ross,Pollok Central,71.03,151.95,83.91,161.03,396.89,Single-ply,SBD,M
Boys,74.84,15,Jacob Bosquez,Pollok Central,74.21,138.35,83.91,170.1,392.36,Single-ply,SBD,M
Boys,74.84,16,Ty Bachtel,Fairfield,73.03,158.76,92.99,136.08,387.82,Single-ply,SBD,M
Boys,82.1,1,JaShaughn Hatcher,Fairfield,79.38,249.48,120.2,242.67,612.35,Single-ply,SBD,M
Boys,82.1,2,Dylan Myers,Rice,81.96,213.19,142.88,199.58,555.65,Single-ply,SBD,M
Boys,82.1,3,Tristan Clark,Troup,79.02,206.38,117.93,219.99,544.31,Single-ply,SBD,M
Boys,82.1,4,Sam Thomas,Rusk,80.74,201.85,127.01,208.65,537.51,Single-ply,SBD,M
Boys,82.1,5,Cole Hobbs,Gladewater Sabine,82.1,201.85,124.74,188.24,514.83,Single-ply,SBD,M
Boys,82.1,6,Carson Ford,Lorena,77.02,185.97,97.52,206.38,489.88,Single-ply,SBD,M
Boys,82.1,7,Adam Caudle,Gladewater Sabine,79.83,192.78,99.79,190.51,483.08,Single-ply,SBD,M
Boys,82.1,8,Tommy Ward,Valley Mills,80.74,199.58,113.4,,312.98,Single-ply,SB,M
Boys,89.81,1,Daniel Carter,Winona,88.72,204.12,158.76,238.14,601.01,Single-ply,SBD,M
Boys,89.81,2,Stancio Battles,New Boston,89.18,219.99,124.74,240.4,585.13,Single-ply,SBD,M
Boys,89.81,3,David Allen,Troup,89.72,222.26,129.27,215.46,566.99,Single-ply,SBD,M
Boys,89.81,4,AJ Harris,Rice,89.63,226.8,117.93,215.46,560.19,Single-ply,SBD,M
Boys,89.81,5,Taylor Little,Kemp,88.18,226.8,117.93,213.19,557.92,Single-ply,SBD,M
Boys,89.81,6,Hunter Isham,Lorena,87.63,208.65,122.47,222.26,553.38,Single-ply,SBD,M
Boys,89.81,7,Koby Smith,Crawford,88.18,213.19,133.81,201.85,548.85,Single-ply,SBD,M
Boys,89.81,8,Isiah Bell,Teague,88.81,206.38,115.67,192.78,514.83,Single-ply,SBD,M
Boys,89.81,9,Jacob Forsythe,Pollok Central,88.18,172.37,92.99,170.1,435.45,Single-ply,SBD,M
Boys,89.81,10,Parker Eidson,Fairfield,87.09,167.83,83.91,154.22,405.97,Single-ply,SBD,M
Boys,89.81,11,Tanner Ross,Pollok Central,89.63,81.65,40.82,95.25,217.72,Single-ply,SBD,M
Boys,99.79,1,Luciano Garza,Jarrell,93.89,215.46,136.08,235.87,587.4,Single-ply,SBD,M
Boys,99.79,2,Daniel Briones,Rice,98.07,215.46,151.95,215.46,582.87,Single-ply,SBD,M
Boys,99.79,3,Coy Benfer,Valley Mills,99.16,215.46,149.69,217.72,582.87,Single-ply,SBD,M
Boys,99.79,4,Kasey Cockrell,Kemp,97.7,231.33,122.47,219.99,573.79,Single-ply,SBD,M
Boys,99.79,5,Justin Horn #1,Corsicana Mildred,94.8,226.8,131.54,213.19,571.53,Single-ply,SBD,M
Boys,99.79,6,Logan Davison,Lorena,99.7,206.38,111.13,215.46,532.97,Single-ply,SBD,M
Boys,99.79,7,Colton Mccoloskey,Mexia,98.52,149.69,108.86,147.42,405.97,Single-ply,SBD,M
Boys,109.77,1,Jacob Gomez,Fairfield,109.32,322.05,206.38,242.67,771.11,Single-ply,SBD,M
Boys,109.77,2,Jermaine Lewis,Rusk,104.24,240.4,124.74,240.4,605.55,Single-ply,SBD,M
Boys,109.77,3,Tyler Watts,Simms Bowie,108.41,231.33,138.35,219.99,589.67,Single-ply,SBD,M
Boys,109.77,4,James Berry,Maud,109.04,235.87,158.76,195.04,589.67,Single-ply,SBD,M
Boys,109.77,5,Will Worrell,Crawford,105.96,244.94,124.74,213.19,582.87,Single-ply,SBD,M
Boys,109.77,6,Dylan Syms,Jarrell,105.41,215.46,158.76,204.12,578.33,Single-ply,SBD,M
Boys,109.77,7,Michael Cervantes,Lorena,105.69,222.26,127.01,226.8,576.06,Single-ply,SBD,M
Boys,109.77,8,Zack Hilton,Maud,109.04,197.31,117.93,249.48,564.72,Single-ply,SBD,M
Boys,109.77,9,Jordan Rios,Mexia,105.41,238.14,122.47,195.04,555.65,Single-ply,SBD,M
Boys,109.77,10,LaDarius Price,Fairfield,106.59,208.65,142.88,199.58,551.11,Single-ply,SBD,M
Boys,109.77,11,Shemar Richardson,Dawson,102.24,199.58,122.47,176.9,498.95,Single-ply,SBD,M
Boys,109.77,DQ,Corey Grisham #2,Centerville,106.59,206.38,115.67,206.38,,Single-ply,SBD,M
Boys,124.74,1,Aaron Pfleeger,Fairfield,114.76,294.84,151.95,249.48,696.26,Single-ply,SBD,M
Boys,124.74,2,Jaylin Jackson,Fairfield,112.94,272.16,181.44,197.31,650.91,Single-ply,SBD,M
Boys,124.74,3,Lucas Stephenson,Simms Bowie,121.56,238.14,124.74,217.72,580.6,Single-ply,SBD,M
Boys,124.74,4,Adrian Bravo,Jarrell,110.13,210.92,163.29,190.51,564.72,Single-ply,SBD,M
Boys,124.74,5,Bryce Stavinoha,Scurry-Rosser,123.92,197.31,156.49,,353.8,Single-ply,SB,M
Boys,124.74,DQ,Chris Palmer,Scurry-Rosser,118.48,,,,,Single-ply,SBD,M
Boys,124.74,DQ,Tanner Cornell,Longview Spring Hill,115.58,,,,,Single-ply,SBD,M
Boys,124.74+,1,Robert Gober,Waco Connally,132.9,303.91,156.49,235.87,696.26,Single-ply,SBD,M
Boys,124.74+,2,Trederek Anglin,Mexia,137.62,249.48,183.7,254.01,687.19,Single-ply,SBD,M
Boys,124.74+,3,Daizion Carroll,Waco Midway,141.52,260.82,151.95,233.6,646.37,Single-ply,SBD,M
Boys,124.74+,4,Jaylen Tobler,Waco Connally,177.08,297.1,131.54,195.04,623.69,Single-ply,SBD,M
Boys,124.74+,5,Kyle Box,Kemp,133.63,231.33,149.69,229.06,610.08,Single-ply,SBD,M
Boys,124.74+,6,Joey McIver,Madisonville,132.63,226.8,140.61,204.12,571.53,Single-ply,SBD,M
Boys,124.74+,7,Carter Crawson,Valley Mills,127.82,231.33,117.93,217.72,566.99,Single-ply,SBD,M
Boys,124.74+,8,Colton Chandler,Longview Spring Hill,127.73,222.26,131.54,204.12,557.92,Single-ply,SBD,M
Boys,124.74+,DQ,Richard Gallegos,Longview Spring Hill,132.9,,,,,Single-ply,SBD,M
Boys,,NS,Trent Allen,Troup,,,,,,Single-ply,SBD,M
Boys,,NS,Bylan Martin,Valley Mills,,,,,,Single-ply,SBD,M
